(module RealFuseHolder (layer F.Cu) (tedit 5D0D5F54)
  (fp_text reference REF** (at 19.5 3) (layer F.SilkS)
    (effects (font (size 1 1) (thickness 0.15)))
  )
  (fp_text value RealFuseHolder (at 19 8.5) (layer F.Fab)
    (effects (font (size 1 1) (thickness 0.15)))
  )
  (fp_line (start 0 0) (end 36 0) (layer F.SilkS) (width 0.12))
  (fp_line (start 36 0) (end 36 11) (layer F.SilkS) (width 0.12))
  (fp_line (start 36 11) (end 0 11) (layer F.SilkS) (width 0.12))
  (fp_line (start 0 11) (end 0 0) (layer F.SilkS) (width 0.12))
  (pad 1 thru_hole circle (at 8 3) (size 2.5 2.5) (drill 1.5) (layers *.Cu *.Mask))
  (pad 1 thru_hole circle (at 8 8) (size 2.5 2.5) (drill 1.5) (layers *.Cu *.Mask))
  (pad 2 thru_hole circle (at 28 3) (size 2.5 2.5) (drill 1.5) (layers *.Cu *.Mask))
  (pad 2 thru_hole circle (at 28 8) (size 2.5 2.5) (drill 1.5) (layers *.Cu *.Mask))
)
