EESchema Schematic File Version 4
LIBS:Robotics PCB A 2-cache
EELAYER 30 0
EELAYER END
$Descr A4 11693 8268
encoding utf-8
Sheet 1 1
Title ""
Date ""
Rev ""
Comp ""
Comment1 ""
Comment2 ""
Comment3 ""
Comment4 ""
$EndDescr
$Comp
L Connector_Generic:Conn_01x02 LIPO_CONN1
U 1 1 5D6869ED
P 1100 2850
F 0 "LIPO_CONN1" H 1180 2842 50  0000 L CNN
F 1 "Conn_01x02" H 1180 2751 50  0000 L CNN
F 2 "Connector_Wire:SolderWirePad_1x02_P5.08mm_Drill1.5mm" H 1100 2850 50  0001 C CNN
F 3 "~" H 1100 2850 50  0001 C CNN
	1    1100 2850
	-1   0    0    1   
$EndComp
$Comp
L power:GND #PWR0110
U 1 1 5D687AB9
P 1300 2850
F 0 "#PWR0110" H 1300 2600 50  0001 C CNN
F 1 "GND" V 1305 2722 50  0000 R CNN
F 2 "" H 1300 2850 50  0001 C CNN
F 3 "" H 1300 2850 50  0001 C CNN
	1    1300 2850
	0    -1   -1   0   
$EndComp
$Comp
L power:+BATT #PWR0111
U 1 1 5D688164
P 1300 2750
F 0 "#PWR0111" H 1300 2600 50  0001 C CNN
F 1 "+BATT" V 1315 2877 50  0000 L CNN
F 2 "" H 1300 2750 50  0001 C CNN
F 3 "" H 1300 2750 50  0001 C CNN
	1    1300 2750
	0    1    1    0   
$EndComp
$Comp
L power:+BATT #PWR0112
U 1 1 5D68874B
P 3250 1000
F 0 "#PWR0112" H 3250 850 50  0001 C CNN
F 1 "+BATT" V 3265 1127 50  0000 L CNN
F 2 "" H 3250 1000 50  0001 C CNN
F 3 "" H 3250 1000 50  0001 C CNN
	1    3250 1000
	0    -1   -1   0   
$EndComp
$Comp
L power:GND #PWR0113
U 1 1 5D68924D
P 3800 1300
F 0 "#PWR0113" H 3800 1050 50  0001 C CNN
F 1 "GND" H 3805 1127 50  0000 C CNN
F 2 "" H 3800 1300 50  0001 C CNN
F 3 "" H 3800 1300 50  0001 C CNN
	1    3800 1300
	1    0    0    -1  
$EndComp
$Comp
L power:+5V #PWR0114
U 1 1 5D689AAB
P 5450 1000
F 0 "#PWR0114" H 5450 850 50  0001 C CNN
F 1 "+5V" V 5465 1128 50  0000 L CNN
F 2 "" H 5450 1000 50  0001 C CNN
F 3 "" H 5450 1000 50  0001 C CNN
	1    5450 1000
	0    1    1    0   
$EndComp
Wire Wire Line
	5000 1000 5050 1000
$Comp
L Device:C C_REG_IN_S1
U 1 1 5D68C59D
P 3450 1150
F 0 "C_REG_IN_S1" H 3250 1400 50  0000 L CNN
F 1 "10nF" H 3550 1100 50  0000 L CNN
F 2 "Capacitor_THT:C_Disc_D4.3mm_W1.9mm_P5.00mm" H 3488 1000 50  0001 C CNN
F 3 "~" H 3450 1150 50  0001 C CNN
	1    3450 1150
	1    0    0    -1  
$EndComp
Connection ~ 3450 1000
$Comp
L Device:C C_REG_OUT_S1
U 1 1 5D68CFEC
P 5050 1150
F 0 "C_REG_OUT_S1" H 4800 1450 50  0000 L CNN
F 1 "10nF" H 4800 1050 50  0000 L CNN
F 2 "Capacitor_THT:C_Disc_D4.3mm_W1.9mm_P5.00mm" H 5088 1000 50  0001 C CNN
F 3 "~" H 5050 1150 50  0001 C CNN
	1    5050 1150
	1    0    0    -1  
$EndComp
Connection ~ 5050 1000
Wire Wire Line
	3450 1300 3800 1300
Connection ~ 3800 1300
$Comp
L Relay:CB1AH-P-12V K1
U 1 1 5D67250E
P 7400 1600
F 0 "K1" H 8100 1865 50  0000 C CNN
F 1 "CB1AH-P-12V" H 8100 1774 50  0000 C CNN
F 2 "MyFootprints:CB1ATP12V" H 8650 1700 50  0001 L CNN
F 3 "https://www.panasonic-electric-works.com/pew/de/downloads/ds_61202_en_cb.pdf" H 8650 1600 50  0001 L CNN
F 4 "Panasonic SPST Automotive Relay PCB Mount, 12V dc Coil, 70 A" H 8650 1500 50  0001 L CNN "Description"
F 5 "25" H 8650 1400 50  0001 L CNN "Height"
F 6 "Panasonic" H 8650 1300 50  0001 L CNN "Manufacturer_Name"
F 7 "CB1AH-P-12V" H 8650 1200 50  0001 L CNN "Manufacturer_Part_Number"
F 8 "769-CB1AHP12V" H 8650 1100 50  0001 L CNN "Mouser Part Number"
F 9 "https://www.mouser.com/Search/Refine.aspx?Keyword=769-CB1AHP12V" H 8650 1000 50  0001 L CNN "Mouser Price/Stock"
F 10 "2508361918" H 8650 900 50  0001 L CNN "RS Part Number"
F 11 "http://uk.rs-online.com/web/p/products/2508361918" H 8650 800 50  0001 L CNN "RS Price/Stock"
F 12 "70158449" H 8650 700 50  0001 L CNN "Allied_Number"
F 13 "https://www.alliedelec.com/panasonic-cb1ah-p-12v/70158449/" H 8650 600 50  0001 L CNN "Allied Price/Stock"
	1    7400 1600
	1    0    0    -1  
$EndComp
$Comp
L Connector_Generic:Conn_01x02 ESTOP1
U 1 1 5D6A1431
P 8900 1300
F 0 "ESTOP1" V 8864 1112 50  0000 R CNN
F 1 "Conn_01x02" V 8773 1112 50  0000 R CNN
F 2 "Connector_Molex:Molex_Micro-Fit_3.0_43650-0200_1x02_P3.00mm_Horizontal" H 8900 1300 50  0001 C CNN
F 3 "~" H 8900 1300 50  0001 C CNN
	1    8900 1300
	0    -1   -1   0   
$EndComp
Wire Wire Line
	7400 1700 7300 1700
Wire Wire Line
	7300 1700 7300 1800
$Comp
L Device:Fuse F1
U 1 1 5D6B76C9
P 7300 950
F 0 "F1" H 7360 996 50  0000 L CNN
F 1 "Fuse" H 7360 905 50  0000 L CNN
F 2 "MyFootprints:RealFuseHolder" V 7230 950 50  0001 C CNN
F 3 "~" H 7300 950 50  0001 C CNN
	1    7300 950 
	0    -1   -1   0   
$EndComp
Wire Wire Line
	7300 1600 7400 1600
$Comp
L power:+BATT #PWR0116
U 1 1 5D6B967F
P 7050 950
F 0 "#PWR0116" H 7050 800 50  0001 C CNN
F 1 "+BATT" H 7065 1123 50  0000 C CNN
F 2 "" H 7050 950 50  0001 C CNN
F 3 "" H 7050 950 50  0001 C CNN
	1    7050 950 
	0    -1   -1   0   
$EndComp
Wire Wire Line
	7050 950  7150 950 
Wire Wire Line
	8800 1600 8900 1600
Wire Wire Line
	8900 1600 8900 1500
Wire Wire Line
	9000 1500 9000 1600
Wire Wire Line
	9000 1600 9100 1600
$Comp
L power:+BATT #PWR0117
U 1 1 5D6BFC3F
P 9100 1600
F 0 "#PWR0117" H 9100 1450 50  0001 C CNN
F 1 "+BATT" V 9115 1728 50  0000 L CNN
F 2 "" H 9100 1600 50  0001 C CNN
F 3 "" H 9100 1600 50  0001 C CNN
	1    9100 1600
	0    1    1    0   
$EndComp
$Comp
L power:VCC #PWR0118
U 1 1 5D6C2D50
P 9100 1700
F 0 "#PWR0118" H 9100 1550 50  0001 C CNN
F 1 "VCC" V 9117 1828 50  0000 L CNN
F 2 "" H 9100 1700 50  0001 C CNN
F 3 "" H 9100 1700 50  0001 C CNN
	1    9100 1700
	0    1    1    0   
$EndComp
Wire Wire Line
	8800 1700 9100 1700
$Comp
L power:GND #PWR0119
U 1 1 5D68B1D4
P 7300 2200
F 0 "#PWR0119" H 7300 1950 50  0001 C CNN
F 1 "GND" H 7305 2027 50  0000 C CNN
F 2 "" H 7300 2200 50  0001 C CNN
F 3 "" H 7300 2200 50  0001 C CNN
	1    7300 2200
	1    0    0    -1  
$EndComp
$Comp
L Transistor_FET:BS170 Q1
U 1 1 5D683467
P 7200 2000
F 0 "Q1" H 7000 2100 50  0000 L CNN
F 1 "BS170" H 6950 2200 50  0000 L CNN
F 2 "Package_TO_SOT_THT:TO-92_Inline" H 7400 1925 50  0001 L CIN
F 3 "http://www.fairchildsemi.com/ds/BS/BS170.pdf" H 7200 2000 50  0001 L CNN
	1    7200 2000
	1    0    0    -1  
$EndComp
Wire Wire Line
	2100 3300 2100 3350
$Comp
L power:GND #PWR0105
U 1 1 5D656157
P 3150 3350
F 0 "#PWR0105" H 3150 3100 50  0001 C CNN
F 1 "GND" V 3155 3222 50  0000 R CNN
F 2 "" H 3150 3350 50  0001 C CNN
F 3 "" H 3150 3350 50  0001 C CNN
	1    3150 3350
	0    -1   -1   0   
$EndComp
Text GLabel 2100 3300 1    50   Input ~ 0
VC4
$Comp
L Amplifier_Operational:LM324 U1
U 5 1 5D5F6875
P 2850 3250
F 0 "U1" H 2808 3296 50  0000 L CNN
F 1 "LM324" H 2808 3205 50  0000 L CNN
F 2 "Package_DIP:DIP-14_W7.62mm_LongPads" H 2800 3350 50  0001 C CNN
F 3 "http://www.ti.com/lit/ds/symlink/lm2902-n.pdf" H 2900 3450 50  0001 C CNN
	5    2850 3250
	0    -1   -1   0   
$EndComp
$Comp
L Amplifier_Operational:LM324 U1
U 1 1 5D5EE8FE
P 2850 3900
F 0 "U1" H 2850 3700 50  0000 C CNN
F 1 "LM324" H 2800 3900 50  0000 C CNN
F 2 "Package_DIP:DIP-14_W7.62mm_LongPads" H 2800 4000 50  0001 C CNN
F 3 "http://www.ti.com/lit/ds/symlink/lm2902-n.pdf" H 2900 4100 50  0001 C CNN
	1    2850 3900
	1    0    0    1   
$EndComp
$Comp
L Device:R R2
U 1 1 5D60BA42
P 2400 3800
F 0 "R2" V 2400 3800 50  0000 C CNN
F 1 "15k" V 2284 3800 50  0000 C CNN
F 2 "Resistor_THT:R_Axial_DIN0207_L6.3mm_D2.5mm_P10.16mm_Horizontal" V 2330 3800 50  0001 C CNN
F 3 "~" H 2400 3800 50  0001 C CNN
	1    2400 3800
	0    1    1    0   
$EndComp
$Comp
L Device:R R3
U 1 1 5D60CBF3
P 2400 4000
F 0 "R3" V 2400 4000 50  0000 C CNN
F 1 "15k" V 2300 4000 50  0000 C CNN
F 2 "Resistor_THT:R_Axial_DIN0207_L6.3mm_D2.5mm_P10.16mm_Horizontal" V 2330 4000 50  0001 C CNN
F 3 "~" H 2400 4000 50  0001 C CNN
	1    2400 4000
	0    1    1    0   
$EndComp
$Comp
L Device:R R1
U 1 1 5D61ED05
P 2850 3550
F 0 "R1" V 2850 3550 50  0000 C CNN
F 1 "15k" V 2734 3550 50  0000 C CNN
F 2 "Resistor_THT:R_Axial_DIN0207_L6.3mm_D2.5mm_P10.16mm_Horizontal" V 2780 3550 50  0001 C CNN
F 3 "~" H 2850 3550 50  0001 C CNN
	1    2850 3550
	0    1    1    0   
$EndComp
Wire Wire Line
	2550 3800 2550 3550
Wire Wire Line
	2550 3550 2700 3550
Connection ~ 2550 3800
Wire Wire Line
	3000 3550 3150 3550
Wire Wire Line
	3150 3550 3150 3900
$Comp
L Device:R R4
U 1 1 5D6270C3
P 2550 4150
F 0 "R4" V 2550 4100 50  0000 L CNN
F 1 "15k" H 2600 4150 50  0000 L CNN
F 2 "Resistor_THT:R_Axial_DIN0207_L6.3mm_D2.5mm_P10.16mm_Horizontal" V 2480 4150 50  0001 C CNN
F 3 "~" H 2550 4150 50  0001 C CNN
	1    2550 4150
	1    0    0    -1  
$EndComp
Connection ~ 2550 4000
$Comp
L power:GND #PWR0101
U 1 1 5D62837C
P 2550 4300
F 0 "#PWR0101" H 2550 4050 50  0001 C CNN
F 1 "GND" H 2555 4127 50  0000 C CNN
F 2 "" H 2550 4300 50  0001 C CNN
F 3 "" H 2550 4300 50  0001 C CNN
	1    2550 4300
	1    0    0    -1  
$EndComp
$Comp
L Amplifier_Operational:LM324 U1
U 2 1 5D62B010
P 2850 4900
F 0 "U1" H 2850 4700 50  0000 C CNN
F 1 "LM324" H 2800 4900 50  0000 C CNN
F 2 "Package_DIP:DIP-14_W7.62mm_LongPads" H 2800 5000 50  0001 C CNN
F 3 "http://www.ti.com/lit/ds/symlink/lm2902-n.pdf" H 2900 5100 50  0001 C CNN
	2    2850 4900
	1    0    0    1   
$EndComp
$Comp
L Device:R R6
U 1 1 5D62B01A
P 2400 4800
F 0 "R6" V 2400 4800 50  0000 C CNN
F 1 "15k" V 2284 4800 50  0000 C CNN
F 2 "Resistor_THT:R_Axial_DIN0207_L6.3mm_D2.5mm_P10.16mm_Horizontal" V 2330 4800 50  0001 C CNN
F 3 "~" H 2400 4800 50  0001 C CNN
	1    2400 4800
	0    1    1    0   
$EndComp
$Comp
L Device:R R7
U 1 1 5D62B024
P 2400 5000
F 0 "R7" V 2400 5000 50  0000 C CNN
F 1 "15k" V 2300 5000 50  0000 C CNN
F 2 "Resistor_THT:R_Axial_DIN0207_L6.3mm_D2.5mm_P10.16mm_Horizontal" V 2330 5000 50  0001 C CNN
F 3 "~" H 2400 5000 50  0001 C CNN
	1    2400 5000
	0    1    1    0   
$EndComp
$Comp
L Device:R R5
U 1 1 5D62B02E
P 2850 4550
F 0 "R5" V 2850 4550 50  0000 C CNN
F 1 "10k" V 2734 4550 50  0000 C CNN
F 2 "Resistor_THT:R_Axial_DIN0207_L6.3mm_D2.5mm_P10.16mm_Horizontal" V 2780 4550 50  0001 C CNN
F 3 "~" H 2850 4550 50  0001 C CNN
	1    2850 4550
	0    1    1    0   
$EndComp
Wire Wire Line
	2550 4800 2550 4550
Wire Wire Line
	2550 4550 2700 4550
Connection ~ 2550 4800
Wire Wire Line
	3000 4550 3150 4550
Wire Wire Line
	3150 4550 3150 4900
$Comp
L Device:R R8
U 1 1 5D62B03D
P 2550 5150
F 0 "R8" V 2550 5100 50  0000 L CNN
F 1 "10k" H 2600 5150 50  0000 L CNN
F 2 "Resistor_THT:R_Axial_DIN0207_L6.3mm_D2.5mm_P10.16mm_Horizontal" V 2480 5150 50  0001 C CNN
F 3 "~" H 2550 5150 50  0001 C CNN
	1    2550 5150
	1    0    0    -1  
$EndComp
Connection ~ 2550 5000
$Comp
L power:GND #PWR0102
U 1 1 5D62B048
P 2550 5300
F 0 "#PWR0102" H 2550 5050 50  0001 C CNN
F 1 "GND" H 2555 5127 50  0000 C CNN
F 2 "" H 2550 5300 50  0001 C CNN
F 3 "" H 2550 5300 50  0001 C CNN
	1    2550 5300
	1    0    0    -1  
$EndComp
$Comp
L Amplifier_Operational:LM324 U1
U 3 1 5D636638
P 2850 5900
F 0 "U1" H 2850 5700 50  0000 C CNN
F 1 "LM324" H 2800 5900 50  0000 C CNN
F 2 "Package_DIP:DIP-14_W7.62mm_LongPads" H 2800 6000 50  0001 C CNN
F 3 "http://www.ti.com/lit/ds/symlink/lm2902-n.pdf" H 2900 6100 50  0001 C CNN
	3    2850 5900
	1    0    0    1   
$EndComp
$Comp
L Device:R R10
U 1 1 5D636642
P 2400 5800
F 0 "R10" V 2400 5800 50  0000 C CNN
F 1 "15k" V 2284 5800 50  0000 C CNN
F 2 "Resistor_THT:R_Axial_DIN0207_L6.3mm_D2.5mm_P10.16mm_Horizontal" V 2330 5800 50  0001 C CNN
F 3 "~" H 2400 5800 50  0001 C CNN
	1    2400 5800
	0    1    1    0   
$EndComp
$Comp
L Device:R R11
U 1 1 5D63664C
P 2400 6000
F 0 "R11" V 2400 6000 50  0000 C CNN
F 1 "15k" V 2300 6000 50  0000 C CNN
F 2 "Resistor_THT:R_Axial_DIN0207_L6.3mm_D2.5mm_P10.16mm_Horizontal" V 2330 6000 50  0001 C CNN
F 3 "~" H 2400 6000 50  0001 C CNN
	1    2400 6000
	0    1    1    0   
$EndComp
$Comp
L Device:R R9
U 1 1 5D636656
P 2850 5550
F 0 "R9" V 2850 5550 50  0000 C CNN
F 1 "10k" V 2734 5550 50  0000 C CNN
F 2 "Resistor_THT:R_Axial_DIN0207_L6.3mm_D2.5mm_P10.16mm_Horizontal" V 2780 5550 50  0001 C CNN
F 3 "~" H 2850 5550 50  0001 C CNN
	1    2850 5550
	0    1    1    0   
$EndComp
Wire Wire Line
	2550 5800 2550 5550
Wire Wire Line
	2550 5550 2700 5550
Connection ~ 2550 5800
Wire Wire Line
	3000 5550 3150 5550
Wire Wire Line
	3150 5550 3150 5900
$Comp
L Device:R R12
U 1 1 5D636665
P 2550 6150
F 0 "R12" V 2550 6100 50  0000 L CNN
F 1 "10k" H 2600 6150 50  0000 L CNN
F 2 "Resistor_THT:R_Axial_DIN0207_L6.3mm_D2.5mm_P10.16mm_Horizontal" V 2480 6150 50  0001 C CNN
F 3 "~" H 2550 6150 50  0001 C CNN
	1    2550 6150
	1    0    0    -1  
$EndComp
Connection ~ 2550 6000
$Comp
L power:GND #PWR0103
U 1 1 5D636670
P 2550 6300
F 0 "#PWR0103" H 2550 6050 50  0001 C CNN
F 1 "GND" H 2555 6127 50  0000 C CNN
F 2 "" H 2550 6300 50  0001 C CNN
F 3 "" H 2550 6300 50  0001 C CNN
	1    2550 6300
	1    0    0    -1  
$EndComp
$Comp
L Amplifier_Operational:LM324 U1
U 4 1 5D63E8D0
P 2850 6900
F 0 "U1" H 2850 6700 50  0000 C CNN
F 1 "LM324" H 2800 6900 50  0000 C CNN
F 2 "Package_DIP:DIP-14_W7.62mm_LongPads" H 2800 7000 50  0001 C CNN
F 3 "http://www.ti.com/lit/ds/symlink/lm2902-n.pdf" H 2900 7100 50  0001 C CNN
	4    2850 6900
	1    0    0    1   
$EndComp
$Comp
L Device:R R14
U 1 1 5D63E8DA
P 2400 6800
F 0 "R14" V 2400 6800 50  0000 C CNN
F 1 "15k" V 2284 6800 50  0000 C CNN
F 2 "Resistor_THT:R_Axial_DIN0207_L6.3mm_D2.5mm_P10.16mm_Horizontal" V 2330 6800 50  0001 C CNN
F 3 "~" H 2400 6800 50  0001 C CNN
	1    2400 6800
	0    1    1    0   
$EndComp
$Comp
L Device:R R15
U 1 1 5D63E8E4
P 2400 7000
F 0 "R15" V 2400 7000 50  0000 C CNN
F 1 "15k" V 2300 7000 50  0000 C CNN
F 2 "Resistor_THT:R_Axial_DIN0207_L6.3mm_D2.5mm_P10.16mm_Horizontal" V 2330 7000 50  0001 C CNN
F 3 "~" H 2400 7000 50  0001 C CNN
	1    2400 7000
	0    1    1    0   
$EndComp
$Comp
L Device:R R13
U 1 1 5D63E8EE
P 2850 6550
F 0 "R13" V 2850 6550 50  0000 C CNN
F 1 "10k" V 2734 6550 50  0000 C CNN
F 2 "Resistor_THT:R_Axial_DIN0207_L6.3mm_D2.5mm_P10.16mm_Horizontal" V 2780 6550 50  0001 C CNN
F 3 "~" H 2850 6550 50  0001 C CNN
	1    2850 6550
	0    1    1    0   
$EndComp
Wire Wire Line
	2550 6800 2550 6550
Wire Wire Line
	2550 6550 2700 6550
Connection ~ 2550 6800
Wire Wire Line
	3000 6550 3150 6550
Wire Wire Line
	3150 6550 3150 6900
$Comp
L Device:R R16
U 1 1 5D63E8FD
P 2550 7150
F 0 "R16" V 2550 7100 50  0000 L CNN
F 1 "10k" H 2600 7150 50  0000 L CNN
F 2 "Resistor_THT:R_Axial_DIN0207_L6.3mm_D2.5mm_P10.16mm_Horizontal" V 2480 7150 50  0001 C CNN
F 3 "~" H 2550 7150 50  0001 C CNN
	1    2550 7150
	1    0    0    -1  
$EndComp
Connection ~ 2550 7000
$Comp
L power:GND #PWR0104
U 1 1 5D63E908
P 2550 7300
F 0 "#PWR0104" H 2550 7050 50  0001 C CNN
F 1 "GND" H 2555 7127 50  0000 C CNN
F 2 "" H 2550 7300 50  0001 C CNN
F 3 "" H 2550 7300 50  0001 C CNN
	1    2550 7300
	1    0    0    -1  
$EndComp
Wire Wire Line
	2250 4000 2250 4400
Wire Wire Line
	2250 5000 2250 5800
Wire Wire Line
	2250 6000 2250 6800
Text GLabel 1950 4400 0    50   Input ~ 0
VC3
Text GLabel 2250 7000 0    50   Input ~ 0
VC0
Text GLabel 2250 6400 0    50   Input ~ 0
VC1
Text GLabel 2250 5400 0    50   Input ~ 0
VC2
$Comp
L Teensy:Teensy4.0 U3
U 1 1 5D661B13
P 5350 5950
F 0 "U3" H 5350 7565 50  0000 C CNN
F 1 "Teensy4.0" H 5350 7474 50  0000 C CNN
F 2 "Teensy:Teensy40" H 4950 6150 50  0001 C CNN
F 3 "" H 4950 6150 50  0001 C CNN
	1    5350 5950
	1    0    0    -1  
$EndComp
Wire Wire Line
	3150 6900 4250 6900
Connection ~ 3150 6900
Wire Wire Line
	3150 5900 3250 5900
Wire Wire Line
	3250 5900 3250 6800
Wire Wire Line
	3250 6800 4250 6800
Connection ~ 3150 5900
Wire Wire Line
	3150 4900 3350 4900
Wire Wire Line
	3350 4900 3350 6700
Wire Wire Line
	3350 6700 4250 6700
Connection ~ 3150 4900
Wire Wire Line
	3150 3900 3450 3900
Wire Wire Line
	3450 3900 3450 6600
Wire Wire Line
	3450 6600 4250 6600
Connection ~ 3150 3900
$Comp
L power:GND #PWR0109
U 1 1 5D678510
P 4250 6200
F 0 "#PWR0109" H 4250 5950 50  0001 C CNN
F 1 "GND" V 4255 6072 50  0000 R CNN
F 2 "" H 4250 6200 50  0001 C CNN
F 3 "" H 4250 6200 50  0001 C CNN
	1    4250 6200
	0    1    1    0   
$EndComp
Wire Wire Line
	1950 4400 2100 4400
Connection ~ 2250 4400
Wire Wire Line
	2250 4400 2250 4800
$Comp
L Device:R R18
U 1 1 5D679B2B
P 2100 4100
F 0 "R18" V 2100 4050 50  0000 L CNN
F 1 "10k" H 1900 4100 50  0000 L CNN
F 2 "Resistor_THT:R_Axial_DIN0207_L6.3mm_D2.5mm_P10.16mm_Horizontal" V 2030 4100 50  0001 C CNN
F 3 "~" H 2100 4100 50  0001 C CNN
	1    2100 4100
	1    0    0    -1  
$EndComp
Wire Wire Line
	2250 3800 2100 3800
Wire Wire Line
	2100 3800 2100 3950
Wire Wire Line
	2100 4250 2100 4400
Connection ~ 2100 4400
Wire Wire Line
	2100 4400 2250 4400
$Comp
L Device:R R17
U 1 1 5D67E267
P 2100 3500
F 0 "R17" H 2030 3454 50  0000 R CNN
F 1 "5k" H 2030 3545 50  0000 R CNN
F 2 "Resistor_THT:R_Axial_DIN0207_L6.3mm_D2.5mm_P10.16mm_Horizontal" V 2030 3500 50  0001 C CNN
F 3 "~" H 2100 3500 50  0001 C CNN
	1    2100 3500
	-1   0    0    1   
$EndComp
Wire Wire Line
	2100 3650 2100 3800
Connection ~ 2100 3800
$Comp
L power:+5V #PWR0115
U 1 1 5D69574C
P 6450 6900
F 0 "#PWR0115" H 6450 6750 50  0001 C CNN
F 1 "+5V" V 6465 7028 50  0000 L CNN
F 2 "" H 6450 6900 50  0001 C CNN
F 3 "" H 6450 6900 50  0001 C CNN
	1    6450 6900
	0    1    1    0   
$EndComp
$Comp
L power:GND #PWR0108
U 1 1 5D6775EE
P 6450 7000
F 0 "#PWR0108" H 6450 6750 50  0001 C CNN
F 1 "GND" V 6455 6872 50  0000 R CNN
F 2 "" H 6450 7000 50  0001 C CNN
F 3 "" H 6450 7000 50  0001 C CNN
	1    6450 7000
	0    -1   -1   0   
$EndComp
$Comp
L Connector_Generic:Conn_01x02 12V1
U 1 1 5D744D9C
P 1100 2500
F 0 "12V1" H 1180 2492 50  0000 L CNN
F 1 "Conn_01x02" H 1180 2401 50  0000 L CNN
F 2 "Connector_Molex:Molex_Micro-Fit_3.0_43650-0200_1x02_P3.00mm_Horizontal" H 1100 2500 50  0001 C CNN
F 3 "~" H 1100 2500 50  0001 C CNN
	1    1100 2500
	-1   0    0    1   
$EndComp
$Comp
L power:GND #PWR0120
U 1 1 5D7460C5
P 1300 2500
F 0 "#PWR0120" H 1300 2250 50  0001 C CNN
F 1 "GND" V 1305 2372 50  0000 R CNN
F 2 "" H 1300 2500 50  0001 C CNN
F 3 "" H 1300 2500 50  0001 C CNN
	1    1300 2500
	0    -1   -1   0   
$EndComp
$Comp
L power:+12V #PWR0121
U 1 1 5D746966
P 1300 2400
F 0 "#PWR0121" H 1300 2250 50  0001 C CNN
F 1 "+12V" V 1300 2550 50  0000 L CNN
F 2 "" H 1300 2400 50  0001 C CNN
F 3 "" H 1300 2400 50  0001 C CNN
	1    1300 2400
	0    1    1    0   
$EndComp
Text GLabel 2500 1900 2    50   Input ~ 0
SW1
Text GLabel 2500 1800 2    50   Input ~ 0
SW2
Text GLabel 2500 1700 2    50   Input ~ 0
SW3
Text GLabel 2500 1600 2    50   Input ~ 0
SW4
$Comp
L power:GND #PWR0122
U 1 1 5D74B20B
P 1300 2000
F 0 "#PWR0122" H 1300 1750 50  0001 C CNN
F 1 "GND" V 1300 1900 50  0000 R CNN
F 2 "" H 1300 2000 50  0001 C CNN
F 3 "" H 1300 2000 50  0001 C CNN
	1    1300 2000
	0    -1   -1   0   
$EndComp
$Comp
L power:+BATT #PWR0123
U 1 1 5D74BE89
P 2550 3350
F 0 "#PWR0123" H 2550 3200 50  0001 C CNN
F 1 "+BATT" V 2565 3477 50  0000 L CNN
F 2 "" H 2550 3350 50  0001 C CNN
F 3 "" H 2550 3350 50  0001 C CNN
	1    2550 3350
	0    -1   -1   0   
$EndComp
$Comp
L Connector_Generic:Conn_01x02 ARM_BATT1
U 1 1 5D74C92B
P 10300 3100
F 0 "ARM_BATT1" H 10650 3000 50  0000 C CNN
F 1 "Conn_01x02" H 10600 3100 50  0000 C CNN
F 2 "Connector_Molex:Molex_Micro-Fit_3.0_43650-0200_1x02_P3.00mm_Horizontal" H 10300 3100 50  0001 C CNN
F 3 "~" H 10300 3100 50  0001 C CNN
	1    10300 3100
	1    0    0    -1  
$EndComp
$Comp
L Connector_Generic:Conn_01x02 ARM_12V1
U 1 1 5D74E0FC
P 10300 2750
F 0 "ARM_12V1" H 10650 2650 50  0000 C CNN
F 1 "Conn_01x02" H 10600 2750 50  0000 C CNN
F 2 "Connector_Molex:Molex_Micro-Fit_3.0_43650-0200_1x02_P3.00mm_Horizontal" H 10300 2750 50  0001 C CNN
F 3 "~" H 10300 2750 50  0001 C CNN
	1    10300 2750
	1    0    0    -1  
$EndComp
$Comp
L Connector_Generic:Conn_01x02 ODRV1
U 1 1 5D751834
P 10300 3800
F 0 "ODRV1" H 10600 3700 50  0000 C CNN
F 1 "Conn_01x02" H 10600 3800 50  0000 C CNN
F 2 "Connector_Molex:Molex_Micro-Fit_3.0_43650-0200_1x02_P3.00mm_Horizontal" H 10300 3800 50  0001 C CNN
F 3 "~" H 10300 3800 50  0001 C CNN
	1    10300 3800
	1    0    0    -1  
$EndComp
$Comp
L Connector_Generic:Conn_01x02 ODRV2
U 1 1 5D751AAB
P 10300 3450
F 0 "ODRV2" H 10600 3350 50  0000 C CNN
F 1 "Conn_01x02" H 10600 3450 50  0000 C CNN
F 2 "Connector_Molex:Molex_Micro-Fit_3.0_43650-0200_1x02_P3.00mm_Horizontal" H 10300 3450 50  0001 C CNN
F 3 "~" H 10300 3450 50  0001 C CNN
	1    10300 3450
	1    0    0    -1  
$EndComp
$Comp
L Relay:CB1AH-P-12V K2
U 1 1 5D776E2D
P 7400 3200
F 0 "K2" H 8100 3465 50  0000 C CNN
F 1 "CB1AH-P-12V" H 8100 3374 50  0000 C CNN
F 2 "MyFootprints:CB1ATP12V" H 8650 3300 50  0001 L CNN
F 3 "https://www.panasonic-electric-works.com/pew/de/downloads/ds_61202_en_cb.pdf" H 8650 3200 50  0001 L CNN
F 4 "Panasonic SPST Automotive Relay PCB Mount, 12V dc Coil, 70 A" H 8650 3100 50  0001 L CNN "Description"
F 5 "25" H 8650 3000 50  0001 L CNN "Height"
F 6 "Panasonic" H 8650 2900 50  0001 L CNN "Manufacturer_Name"
F 7 "CB1AH-P-12V" H 8650 2800 50  0001 L CNN "Manufacturer_Part_Number"
F 8 "769-CB1AHP12V" H 8650 2700 50  0001 L CNN "Mouser Part Number"
F 9 "https://www.mouser.com/Search/Refine.aspx?Keyword=769-CB1AHP12V" H 8650 2600 50  0001 L CNN "Mouser Price/Stock"
F 10 "2508361918" H 8650 2500 50  0001 L CNN "RS Part Number"
F 11 "http://uk.rs-online.com/web/p/products/2508361918" H 8650 2400 50  0001 L CNN "RS Price/Stock"
F 12 "70158449" H 8650 2300 50  0001 L CNN "Allied_Number"
F 13 "https://www.alliedelec.com/panasonic-cb1ah-p-12v/70158449/" H 8650 2200 50  0001 L CNN "Allied Price/Stock"
	1    7400 3200
	1    0    0    -1  
$EndComp
$Comp
L Connector_Generic:Conn_01x02 ODRV_ESTOP1
U 1 1 5D776E37
P 8900 2900
F 0 "ODRV_ESTOP1" V 8864 2712 50  0000 R CNN
F 1 "Conn_01x02" V 8773 2712 50  0000 R CNN
F 2 "Connector_Molex:Molex_Micro-Fit_3.0_43650-0200_1x02_P3.00mm_Horizontal" H 8900 2900 50  0001 C CNN
F 3 "~" H 8900 2900 50  0001 C CNN
	1    8900 2900
	0    -1   -1   0   
$EndComp
Wire Wire Line
	7400 3300 7300 3300
Wire Wire Line
	7300 3300 7300 3400
$Comp
L Device:Fuse F2
U 1 1 5D776E43
P 7300 2950
F 0 "F2" H 7360 2996 50  0000 L CNN
F 1 "Fuse" H 7360 2905 50  0000 L CNN
F 2 "MyFootprints:RealFuseHolder" V 7230 2950 50  0001 C CNN
F 3 "~" H 7300 2950 50  0001 C CNN
	1    7300 2950
	1    0    0    -1  
$EndComp
Wire Wire Line
	7300 3100 7300 3200
Wire Wire Line
	7300 3200 7400 3200
Wire Wire Line
	8800 3200 8900 3200
Wire Wire Line
	8900 3200 8900 3100
Wire Wire Line
	9000 3100 9000 3200
Wire Wire Line
	9000 3200 9100 3200
$Comp
L power:+BATT #PWR0124
U 1 1 5D776E5E
P 9100 3200
F 0 "#PWR0124" H 9100 3050 50  0001 C CNN
F 1 "+BATT" V 9115 3328 50  0000 L CNN
F 2 "" H 9100 3200 50  0001 C CNN
F 3 "" H 9100 3200 50  0001 C CNN
	1    9100 3200
	0    1    1    0   
$EndComp
$Comp
L power:GND #PWR0125
U 1 1 5D776E73
P 7300 3800
F 0 "#PWR0125" H 7300 3550 50  0001 C CNN
F 1 "GND" H 7305 3627 50  0000 C CNN
F 2 "" H 7300 3800 50  0001 C CNN
F 3 "" H 7300 3800 50  0001 C CNN
	1    7300 3800
	1    0    0    -1  
$EndComp
$Comp
L Transistor_FET:BS170 Q2
U 1 1 5D776E7D
P 7200 3600
F 0 "Q2" H 7000 3700 50  0000 L CNN
F 1 "BS170" H 6950 3800 50  0000 L CNN
F 2 "Package_TO_SOT_THT:TO-92_Inline" H 7400 3525 50  0001 L CIN
F 3 "http://www.fairchildsemi.com/ds/BS/BS170.pdf" H 7200 3600 50  0001 L CNN
	1    7200 3600
	1    0    0    -1  
$EndComp
$Comp
L power:VCC #PWR0126
U 1 1 5D789FB0
P 7550 2550
F 0 "#PWR0126" H 7550 2400 50  0001 C CNN
F 1 "VCC" H 7567 2723 50  0000 C CNN
F 2 "" H 7550 2550 50  0001 C CNN
F 3 "" H 7550 2550 50  0001 C CNN
	1    7550 2550
	0    -1   -1   0   
$EndComp
Text GLabel 7000 2000 0    50   Input ~ 0
RELAY_ALL
Text GLabel 7000 3600 0    50   Input ~ 0
RELAY_ODRV
Wire Wire Line
	8800 3300 8800 3550
Wire Wire Line
	8800 3550 10100 3550
Wire Wire Line
	8800 3550 8800 3900
Wire Wire Line
	8800 3900 10100 3900
Connection ~ 8800 3550
$Comp
L power:+12V #PWR0127
U 1 1 5D7AA186
P 10100 2850
F 0 "#PWR0127" H 10100 2700 50  0001 C CNN
F 1 "+12V" V 10115 2978 50  0000 L CNN
F 2 "" H 10100 2850 50  0001 C CNN
F 3 "" H 10100 2850 50  0001 C CNN
	1    10100 2850
	0    -1   -1   0   
$EndComp
$Comp
L power:VCC #PWR0128
U 1 1 5D7AAA32
P 10100 3200
F 0 "#PWR0128" H 10100 3050 50  0001 C CNN
F 1 "VCC" V 10118 3327 50  0000 L CNN
F 2 "" H 10100 3200 50  0001 C CNN
F 3 "" H 10100 3200 50  0001 C CNN
	1    10100 3200
	0    -1   -1   0   
$EndComp
Wire Wire Line
	10100 2750 9650 2750
Wire Wire Line
	9650 2750 9650 3100
Wire Wire Line
	10100 3800 9650 3800
Connection ~ 9650 3800
Wire Wire Line
	9650 3800 9650 4000
Wire Wire Line
	10100 3450 9650 3450
Connection ~ 9650 3450
Wire Wire Line
	9650 3450 9650 3800
Wire Wire Line
	10100 3100 9650 3100
Connection ~ 9650 3100
Wire Wire Line
	9650 3100 9650 3450
$Comp
L power:GND #PWR0129
U 1 1 5D7B216E
P 9650 4000
F 0 "#PWR0129" H 9650 3750 50  0001 C CNN
F 1 "GND" H 9655 3827 50  0000 C CNN
F 2 "" H 9650 4000 50  0001 C CNN
F 3 "" H 9650 4000 50  0001 C CNN
	1    9650 4000
	1    0    0    -1  
$EndComp
$Comp
L Connector_Generic:Conn_01x02 DC_DC_19V1
U 1 1 5D7B2CFA
P 10300 2400
F 0 "DC_DC_19V1" H 10380 2392 50  0000 L CNN
F 1 "Conn_01x02" H 10380 2301 50  0000 L CNN
F 2 "Connector_Molex:Molex_Micro-Fit_3.0_43650-0200_1x02_P3.00mm_Horizontal" H 10300 2400 50  0001 C CNN
F 3 "~" H 10300 2400 50  0001 C CNN
	1    10300 2400
	1    0    0    -1  
$EndComp
$Comp
L Connector_Generic:Conn_01x02 DC_DC_12V1
U 1 1 5D7B38AB
P 10300 2050
F 0 "DC_DC_12V1" H 10380 2042 50  0000 L CNN
F 1 "Conn_01x02" H 10380 1951 50  0000 L CNN
F 2 "Connector_Molex:Molex_Micro-Fit_3.0_43650-0200_1x02_P3.00mm_Horizontal" H 10300 2050 50  0001 C CNN
F 3 "~" H 10300 2050 50  0001 C CNN
	1    10300 2050
	1    0    0    -1  
$EndComp
Wire Wire Line
	9650 2750 9650 2400
Wire Wire Line
	9650 2400 10100 2400
Connection ~ 9650 2750
Wire Wire Line
	9650 2400 9650 2050
Wire Wire Line
	9650 2050 10100 2050
Connection ~ 9650 2400
$Comp
L power:VCC #PWR0131
U 1 1 5D7B9FE2
P 10100 2500
F 0 "#PWR0131" H 10100 2350 50  0001 C CNN
F 1 "VCC" V 10118 2627 50  0000 L CNN
F 2 "" H 10100 2500 50  0001 C CNN
F 3 "" H 10100 2500 50  0001 C CNN
	1    10100 2500
	0    -1   -1   0   
$EndComp
$Comp
L CurrentSensor:ACS758LCB-050U-PFF-T U5
U 1 1 5D7BB18E
P 8650 2550
F 0 "U5" H 9200 2815 50  0000 C CNN
F 1 "ACS758LCB-050U-PFF-T" H 9200 2724 50  0000 C CNN
F 2 "Sensor_Current:Allegro_CB_PFF" H 9600 2650 50  0001 L CNN
F 3 "https://www.allegromicro.com/~/media/Files/Datasheets/ACS758-Datasheet.ashx" H 9600 2550 50  0001 L CNN
F 4 "ACS758LCB-050U-PFF-T Allegro Microsystems,, Linear Hall Effect Sensor, 3.3, 5V, 5-Pin CB" H 9600 2450 50  0001 L CNN "Description"
F 5 "" H 9600 2350 50  0001 L CNN "Height"
F 6 "Allegro Microsystems" H 9600 2250 50  0001 L CNN "Manufacturer_Name"
F 7 "ACS758LCB-050U-PFF-T" H 9600 2150 50  0001 L CNN "Manufacturer_Part_Number"
F 8 "" H 9600 2050 50  0001 L CNN "Mouser Part Number"
F 9 "" H 9600 1950 50  0001 L CNN "Mouser Price/Stock"
F 10 "7248748P" H 9600 1850 50  0001 L CNN "RS Part Number"
F 11 "http://uk.rs-online.com/web/p/products/7248748P" H 9600 1750 50  0001 L CNN "RS Price/Stock"
	1    8650 2550
	-1   0    0    -1  
$EndComp
Wire Wire Line
	7550 2650 7300 2650
Wire Wire Line
	7300 2650 7300 2800
$Comp
L Connector_Generic:Conn_01x02 RELAY_OVERRIDE_ALL1
U 1 1 5D7D0A8D
P 6250 1800
F 0 "RELAY_OVERRIDE_ALL1" V 6214 1612 50  0000 R CNN
F 1 "Conn_01x02" V 6123 1612 50  0000 R CNN
F 2 "Connector_Molex:Molex_Micro-Fit_3.0_43650-0200_1x02_P3.00mm_Horizontal" H 6250 1800 50  0001 C CNN
F 3 "~" H 6250 1800 50  0001 C CNN
	1    6250 1800
	-1   0    0    1   
$EndComp
$Comp
L power:GND #PWR0132
U 1 1 5D7D1EE4
P 6450 1800
F 0 "#PWR0132" H 6450 1550 50  0001 C CNN
F 1 "GND" H 6455 1627 50  0000 C CNN
F 2 "" H 6450 1800 50  0001 C CNN
F 3 "" H 6450 1800 50  0001 C CNN
	1    6450 1800
	0    -1   -1   0   
$EndComp
Wire Wire Line
	6450 1700 7300 1700
Connection ~ 7300 1700
Wire Wire Line
	7300 3300 6450 3300
Connection ~ 7300 3300
$Comp
L CurrentSensor:ACS758LCB-050U-PFF-T U4
U 1 1 5D7D69F1
P 8650 950
F 0 "U4" H 9200 1215 50  0000 C CNN
F 1 "ACS758LCB-050U-PFF-T" H 9200 1124 50  0000 C CNN
F 2 "Sensor_Current:Allegro_CB_PFF" H 9600 1050 50  0001 L CNN
F 3 "https://www.allegromicro.com/~/media/Files/Datasheets/ACS758-Datasheet.ashx" H 9600 950 50  0001 L CNN
F 4 "ACS758LCB-050U-PFF-T Allegro Microsystems,, Linear Hall Effect Sensor, 3.3, 5V, 5-Pin CB" H 9600 850 50  0001 L CNN "Description"
F 5 "" H 9600 750 50  0001 L CNN "Height"
F 6 "Allegro Microsystems" H 9600 650 50  0001 L CNN "Manufacturer_Name"
F 7 "ACS758LCB-050U-PFF-T" H 9600 550 50  0001 L CNN "Manufacturer_Part_Number"
F 8 "" H 9600 450 50  0001 L CNN "Mouser Part Number"
F 9 "" H 9600 350 50  0001 L CNN "Mouser Price/Stock"
F 10 "7248748P" H 9600 250 50  0001 L CNN "RS Part Number"
F 11 "http://uk.rs-online.com/web/p/products/7248748P" H 9600 150 50  0001 L CNN "RS Price/Stock"
	1    8650 950 
	-1   0    0    -1  
$EndComp
Wire Wire Line
	7300 1050 7550 1050
Wire Wire Line
	7300 1050 7300 1600
Wire Wire Line
	7550 950  7450 950 
$Comp
L power:GND #PWR0133
U 1 1 5D7DEE56
P 9050 2450
F 0 "#PWR0133" H 9050 2200 50  0001 C CNN
F 1 "GND" V 9050 2350 50  0000 R CNN
F 2 "" H 9050 2450 50  0001 C CNN
F 3 "" H 9050 2450 50  0001 C CNN
	1    9050 2450
	0    -1   -1   0   
$EndComp
$Comp
L power:GND #PWR0134
U 1 1 5D7DF1DB
P 9250 850
F 0 "#PWR0134" H 9250 600 50  0001 C CNN
F 1 "GND" V 9255 722 50  0000 R CNN
F 2 "" H 9250 850 50  0001 C CNN
F 3 "" H 9250 850 50  0001 C CNN
	1    9250 850 
	0    -1   -1   0   
$EndComp
$Comp
L power:+5V #PWR0135
U 1 1 5D7DF830
P 9250 550
F 0 "#PWR0135" H 9250 400 50  0001 C CNN
F 1 "+5V" V 9250 700 50  0000 L CNN
F 2 "" H 9250 550 50  0001 C CNN
F 3 "" H 9250 550 50  0001 C CNN
	1    9250 550 
	0    1    1    0   
$EndComp
$Comp
L power:+5V #PWR0136
U 1 1 5D7E0DA5
P 9050 2150
F 0 "#PWR0136" H 9050 2000 50  0001 C CNN
F 1 "+5V" V 9050 2300 50  0000 L CNN
F 2 "" H 9050 2150 50  0001 C CNN
F 3 "" H 9050 2150 50  0001 C CNN
	1    9050 2150
	0    1    1    0   
$EndComp
Text GLabel 9250 1150 2    50   Input ~ 0
CURR_ALL
Text GLabel 9000 2750 2    50   Input ~ 0
CURR_ODRV
Text GLabel 4250 5500 0    50   Input ~ 0
T_CS
Text GLabel 4250 5600 0    50   Input ~ 0
D|C
Text GLabel 4250 5700 0    50   Input ~ 0
CS
Text GLabel 3900 5700 0    50   Input ~ 0
SDI(MOSI)
Text GLabel 3900 5800 0    50   Input ~ 0
T_DIN
Wire Wire Line
	3900 5700 4000 5700
Wire Wire Line
	4000 5700 4000 5800
Wire Wire Line
	3900 5800 4000 5800
Connection ~ 4000 5800
Wire Wire Line
	4000 5800 4250 5800
Text GLabel 3900 5900 0    50   Input ~ 0
SDO(MISO)
Text GLabel 3900 6000 0    50   Input ~ 0
T_DO
Wire Wire Line
	3900 5900 4000 5900
Wire Wire Line
	4000 5900 4000 6000
Wire Wire Line
	4000 6000 3900 6000
Connection ~ 4000 5900
Wire Wire Line
	4000 5900 4250 5900
Text GLabel 3900 6500 0    50   Input ~ 0
SCK
Text GLabel 3900 6400 0    50   Input ~ 0
T_CLK
Text GLabel 4250 4900 0    50   Input ~ 0
T_IRQ
Wire Wire Line
	4250 6500 4000 6500
Wire Wire Line
	3900 6400 4000 6400
Wire Wire Line
	4000 6400 4000 6500
Connection ~ 4000 6500
Wire Wire Line
	4000 6500 3900 6500
$Comp
L Connector_Generic:Conn_01x14 SCREEN1
U 1 1 5D8051FD
P 10300 4750
F 0 "SCREEN1" H 10380 4742 50  0000 L CNN
F 1 "Conn_01x14" H 10380 4651 50  0000 L CNN
F 2 "Connector_PinSocket_2.54mm:PinSocket_1x14_P2.54mm_Vertical" H 10300 4750 50  0001 C CNN
F 3 "~" H 10300 4750 50  0001 C CNN
	1    10300 4750
	1    0    0    -1  
$EndComp
$Comp
L power:+5V #PWR0137
U 1 1 5D807939
P 10100 4150
F 0 "#PWR0137" H 10100 4000 50  0001 C CNN
F 1 "+5V" V 10115 4278 50  0000 L CNN
F 2 "" H 10100 4150 50  0001 C CNN
F 3 "" H 10100 4150 50  0001 C CNN
	1    10100 4150
	0    -1   -1   0   
$EndComp
$Comp
L power:GND #PWR0138
U 1 1 5D8082D5
P 10100 4250
F 0 "#PWR0138" H 10100 4000 50  0001 C CNN
F 1 "GND" V 10105 4122 50  0000 R CNN
F 2 "" H 10100 4250 50  0001 C CNN
F 3 "" H 10100 4250 50  0001 C CNN
	1    10100 4250
	0    1    1    0   
$EndComp
Text GLabel 10100 4350 0    50   Input ~ 0
CS
$Comp
L power:+3V3 #PWR0139
U 1 1 5D8094CA
P 6450 7100
F 0 "#PWR0139" H 6450 6950 50  0001 C CNN
F 1 "+3V3" V 6465 7228 50  0000 L CNN
F 2 "" H 6450 7100 50  0001 C CNN
F 3 "" H 6450 7100 50  0001 C CNN
	1    6450 7100
	0    1    1    0   
$EndComp
$Comp
L power:+3V3 #PWR0140
U 1 1 5D809F43
P 10100 4450
F 0 "#PWR0140" H 10100 4300 50  0001 C CNN
F 1 "+3V3" V 10115 4578 50  0000 L CNN
F 2 "" H 10100 4450 50  0001 C CNN
F 3 "" H 10100 4450 50  0001 C CNN
	1    10100 4450
	0    -1   -1   0   
$EndComp
Text GLabel 10100 4550 0    50   Input ~ 0
D|C
Text GLabel 10100 4650 0    50   Input ~ 0
SDI(MOSI)
Text GLabel 10100 4750 0    50   Input ~ 0
SCK
$Comp
L Device:R R19
U 1 1 5D80CB98
P 9600 4850
F 0 "R19" V 9393 4850 50  0000 C CNN
F 1 "R" V 9484 4850 50  0000 C CNN
F 2 "Resistor_THT:R_Axial_DIN0207_L6.3mm_D2.5mm_P10.16mm_Horizontal" V 9530 4850 50  0001 C CNN
F 3 "~" H 9600 4850 50  0001 C CNN
	1    9600 4850
	0    1    1    0   
$EndComp
Wire Wire Line
	9750 4850 10100 4850
$Comp
L power:+5V #PWR0141
U 1 1 5D81095D
P 9350 4850
F 0 "#PWR0141" H 9350 4700 50  0001 C CNN
F 1 "+5V" V 9365 4978 50  0000 L CNN
F 2 "" H 9350 4850 50  0001 C CNN
F 3 "" H 9350 4850 50  0001 C CNN
	1    9350 4850
	0    -1   -1   0   
$EndComp
Text GLabel 10100 4950 0    50   Input ~ 0
SDO(MISO)
Text GLabel 10100 5050 0    50   Input ~ 0
T_CLK
Text GLabel 10100 5150 0    50   Input ~ 0
T_CS
Text GLabel 10100 5250 0    50   Input ~ 0
T_DIN
Text GLabel 10100 5350 0    50   Input ~ 0
T_DO
Text GLabel 10100 5450 0    50   Input ~ 0
T_IRQ
Text GLabel 4250 5000 0    50   Input ~ 0
SW1
Text GLabel 4250 5100 0    50   Input ~ 0
SW2
Text GLabel 4250 5200 0    50   Input ~ 0
SW3
Text GLabel 4250 5300 0    50   Input ~ 0
SW4
Text GLabel 6450 7300 2    50   Input ~ 0
CURR_ALL
Text GLabel 6450 7200 2    50   Input ~ 0
CURR_ODRV
Text GLabel 4250 5400 0    50   Input ~ 0
RELAY_ALL
Text GLabel 4250 7300 0    50   Input ~ 0
RELAY_ODRV
Text GLabel 4250 7000 0    50   Input ~ 0
SDA
Text GLabel 4250 7100 0    50   Input ~ 0
SCL
$Comp
L Connector_Generic:Conn_01x04 CO2
U 1 1 5D824539
P 10300 5800
F 0 "CO2" H 10380 5792 50  0000 L CNN
F 1 "Conn_01x04" H 10380 5701 50  0000 L CNN
F 2 "Connector_Molex:Molex_Micro-Fit_3.0_43650-0400_1x04_P3.00mm_Horizontal" H 10300 5800 50  0001 C CNN
F 3 "~" H 10300 5800 50  0001 C CNN
	1    10300 5800
	1    0    0    -1  
$EndComp
$Comp
L power:+3V3 #PWR0142
U 1 1 5D8254CF
P 10100 5700
F 0 "#PWR0142" H 10100 5550 50  0001 C CNN
F 1 "+3V3" V 10115 5828 50  0000 L CNN
F 2 "" H 10100 5700 50  0001 C CNN
F 3 "" H 10100 5700 50  0001 C CNN
	1    10100 5700
	0    -1   -1   0   
$EndComp
$Comp
L power:GND #PWR0143
U 1 1 5D825F33
P 10100 5800
F 0 "#PWR0143" H 10100 5550 50  0001 C CNN
F 1 "GND" V 10105 5672 50  0000 R CNN
F 2 "" H 10100 5800 50  0001 C CNN
F 3 "" H 10100 5800 50  0001 C CNN
	1    10100 5800
	0    1    1    0   
$EndComp
Text GLabel 10100 5900 0    50   Input ~ 0
SCL
Text GLabel 10100 6000 0    50   Input ~ 0
SDA
Wire Wire Line
	9350 4850 9450 4850
$Comp
L Connector_Generic:Conn_01x02 SPARE1
U 1 1 5D8586A2
P 3650 4800
F 0 "SPARE1" H 3568 4475 50  0000 C CNN
F 1 "Conn_01x02" H 3568 4566 50  0000 C CNN
F 2 "Connector_PinHeader_2.54mm:PinHeader_1x02_P2.54mm_Vertical" H 3650 4800 50  0001 C CNN
F 3 "~" H 3650 4800 50  0001 C CNN
	1    3650 4800
	-1   0    0    1   
$EndComp
Wire Wire Line
	4250 4700 3850 4700
Wire Wire Line
	3850 4800 4250 4800
Wire Wire Line
	1300 1800 2250 1800
Wire Wire Line
	1300 1700 2050 1700
Wire Wire Line
	1300 1600 1850 1600
Wire Wire Line
	1850 1400 1850 1600
Connection ~ 1850 1600
Wire Wire Line
	1850 1600 2500 1600
Wire Wire Line
	2050 1400 2050 1700
Connection ~ 2050 1700
Wire Wire Line
	2050 1700 2500 1700
Wire Wire Line
	2250 1400 2250 1800
Connection ~ 2250 1800
Wire Wire Line
	2250 1800 2500 1800
Wire Wire Line
	1850 1100 1850 1000
Connection ~ 1850 1000
Wire Wire Line
	1850 1000 1650 1000
Wire Wire Line
	2050 1100 2050 1000
Connection ~ 2050 1000
Wire Wire Line
	2050 1000 1850 1000
Wire Wire Line
	2250 1000 2250 1100
Wire Wire Line
	2250 1000 2050 1000
$Comp
L power:+3V3 #PWR0144
U 1 1 5D8BC862
P 1650 900
F 0 "#PWR0144" H 1650 750 50  0001 C CNN
F 1 "+3V3" H 1665 1073 50  0000 C CNN
F 2 "" H 1650 900 50  0001 C CNN
F 3 "" H 1650 900 50  0001 C CNN
	1    1650 900 
	1    0    0    -1  
$EndComp
Wire Wire Line
	1650 900  1650 1000
$Comp
L Device:R R21
U 1 1 5D8C6601
P 1850 1250
F 0 "R21" V 1850 1200 50  0000 L CNN
F 1 "10k" V 1950 1200 50  0000 L CNN
F 2 "Resistor_THT:R_Axial_DIN0207_L6.3mm_D2.5mm_P10.16mm_Horizontal" V 1780 1250 50  0001 C CNN
F 3 "~" H 1850 1250 50  0001 C CNN
	1    1850 1250
	1    0    0    -1  
$EndComp
$Comp
L Device:R R22
U 1 1 5D8C6806
P 2050 1250
F 0 "R22" V 2050 1200 50  0000 L CNN
F 1 "10k" V 2150 1200 50  0000 L CNN
F 2 "Resistor_THT:R_Axial_DIN0207_L6.3mm_D2.5mm_P10.16mm_Horizontal" V 1980 1250 50  0001 C CNN
F 3 "~" H 2050 1250 50  0001 C CNN
	1    2050 1250
	1    0    0    -1  
$EndComp
$Comp
L Device:R R23
U 1 1 5D8C6AA1
P 2250 1250
F 0 "R23" V 2250 1200 50  0000 L CNN
F 1 "10k" V 2350 1200 50  0000 L CNN
F 2 "Resistor_THT:R_Axial_DIN0207_L6.3mm_D2.5mm_P10.16mm_Horizontal" V 2180 1250 50  0001 C CNN
F 3 "~" H 2250 1250 50  0001 C CNN
	1    2250 1250
	1    0    0    -1  
$EndComp
Wire Wire Line
	1300 1900 2450 1900
$Comp
L Connector_Generic:Conn_01x08 SWITCHS1
U 1 1 5D6EEBFF
P 1100 1700
F 0 "SWITCHS1" H 1018 1075 50  0000 C CNN
F 1 "Conn_01x08" H 1018 1166 50  0000 C CNN
F 2 "Connector_Molex:Molex_Micro-Fit_3.0_43045-0800_2x04_P3.00mm_Horizontal" H 1100 1700 50  0001 C CNN
F 3 "~" H 1100 1700 50  0001 C CNN
	1    1100 1700
	-1   0    0    1   
$EndComp
$Comp
L Device:R R20
U 1 1 5D6F00C6
P 2450 1250
F 0 "R20" V 2450 1200 50  0000 L CNN
F 1 "10k" V 2550 1200 50  0000 L CNN
F 2 "Resistor_THT:R_Axial_DIN0207_L6.3mm_D2.5mm_P10.16mm_Horizontal" V 2380 1250 50  0001 C CNN
F 3 "~" H 2450 1250 50  0001 C CNN
	1    2450 1250
	1    0    0    -1  
$EndComp
Wire Wire Line
	2450 1400 2450 1900
Connection ~ 2450 1900
Wire Wire Line
	2450 1900 2500 1900
Wire Wire Line
	2250 1000 2450 1000
Wire Wire Line
	2450 1000 2450 1100
Connection ~ 2250 1000
Wire Wire Line
	1300 1500 2500 1500
Wire Wire Line
	1650 1000 1650 1400
Wire Wire Line
	1650 1400 1300 1400
Connection ~ 1650 1000
Text GLabel 2500 1500 2    50   Input ~ 0
AN1
Text GLabel 4250 7200 0    50   Input ~ 0
AN1
NoConn ~ 1300 1300
$Comp
L 5VReg:TSR_1-2450 U2
U 1 1 5D70947F
P 3800 1000
F 0 "U2" H 4400 1265 50  0000 C CNN
F 1 "TSR_1-2450" H 4400 1174 50  0000 C CNN
F 2 "MyFootprints:TSR-1-24120" H 4850 1100 50  0001 L CNN
F 3 "http://assets.tracopower.com/20160301160144/TSR1/documents/tsr1-datasheet.pdf" H 4850 1000 50  0001 L CNN
F 4 "Switching Regulator,6.5-32Vin,5Vout 1A Switching Regulator, 6.5 ??? 36V dc Input, 5V Output, 1A" H 4850 900 50  0001 L CNN "Description"
F 5 "" H 4850 800 50  0001 L CNN "Height"
F 6 "Traco Power" H 4850 700 50  0001 L CNN "Manufacturer_Name"
F 7 "TSR 1-2450" H 4850 600 50  0001 L CNN "Manufacturer_Part_Number"
F 8 "495-TSR-1-2450" H 4850 500 50  0001 L CNN "Mouser Part Number"
F 9 "https://www.mouser.com/Search/Refine.aspx?Keyword=495-TSR-1-2450" H 4850 400 50  0001 L CNN "Mouser Price/Stock"
F 10 "6664379" H 4850 300 50  0001 L CNN "RS Part Number"
F 11 "https://uk.rs-online.com/web/p/products/6664379" H 4850 200 50  0001 L CNN "RS Price/Stock"
	1    3800 1000
	1    0    0    -1  
$EndComp
Wire Wire Line
	3450 1000 3800 1000
Wire Wire Line
	3800 1100 3800 1300
Wire Wire Line
	3800 1300 5050 1300
$Comp
L Device:C C_REG_IN_B1
U 1 1 5D734F0E
P 3250 1150
F 0 "C_REG_IN_B1" H 2700 1200 50  0000 L CNN
F 1 "10uF" H 2950 1100 50  0000 L CNN
F 2 "Capacitor_THT:CP_Radial_D5.0mm_P2.00mm" H 3288 1000 50  0001 C CNN
F 3 "~" H 3250 1150 50  0001 C CNN
	1    3250 1150
	1    0    0    -1  
$EndComp
Wire Wire Line
	3450 1300 3250 1300
Connection ~ 3450 1300
Wire Wire Line
	3250 1000 3450 1000
Connection ~ 3250 1000
$Comp
L Device:C C_REG_OUT_B1
U 1 1 5D7487DD
P 5250 1150
F 0 "C_REG_OUT_B1" H 5365 1196 50  0000 L CNN
F 1 "10uF" H 5365 1105 50  0000 L CNN
F 2 "Capacitor_THT:CP_Radial_D5.0mm_P2.00mm" H 5288 1000 50  0001 C CNN
F 3 "~" H 5250 1150 50  0001 C CNN
	1    5250 1150
	1    0    0    -1  
$EndComp
Wire Wire Line
	5050 1300 5250 1300
Connection ~ 5050 1300
Wire Wire Line
	5050 1000 5250 1000
Wire Wire Line
	5250 1000 5450 1000
Connection ~ 5250 1000
$Comp
L power:+5V #PWR0106
U 1 1 5D75ADAB
P 7000 5900
F 0 "#PWR0106" H 7000 5750 50  0001 C CNN
F 1 "+5V" H 7015 6073 50  0000 C CNN
F 2 "" H 7000 5900 50  0001 C CNN
F 3 "" H 7000 5900 50  0001 C CNN
	1    7000 5900
	1    0    0    -1  
$EndComp
$Comp
L power:GND #PWR0107
U 1 1 5D75B795
P 7000 6200
F 0 "#PWR0107" H 7000 5950 50  0001 C CNN
F 1 "GND" H 7005 6027 50  0000 C CNN
F 2 "" H 7000 6200 50  0001 C CNN
F 3 "" H 7000 6200 50  0001 C CNN
	1    7000 6200
	1    0    0    -1  
$EndComp
$Comp
L Device:C C_TEENSY2
U 1 1 5D75C15B
P 7300 6050
F 0 "C_TEENSY2" H 7415 6096 50  0000 L CNN
F 1 "10nF" H 7415 6005 50  0000 L CNN
F 2 "Capacitor_THT:C_Disc_D4.3mm_W1.9mm_P5.00mm" H 7338 5900 50  0001 C CNN
F 3 "~" H 7300 6050 50  0001 C CNN
	1    7300 6050
	1    0    0    -1  
$EndComp
$Comp
L Device:C C_TEENSY1
U 1 1 5D75D111
P 7000 6050
F 0 "C_TEENSY1" H 6550 6100 50  0000 L CNN
F 1 "10uF" H 6700 6000 50  0000 L CNN
F 2 "Capacitor_THT:CP_Radial_D5.0mm_P2.00mm" H 7038 5900 50  0001 C CNN
F 3 "~" H 7000 6050 50  0001 C CNN
	1    7000 6050
	1    0    0    -1  
$EndComp
Wire Wire Line
	7300 5900 7000 5900
Connection ~ 7000 5900
Wire Wire Line
	7300 6200 7000 6200
Connection ~ 7000 6200
$Comp
L power:+5V #PWR0145
U 1 1 5D775989
P 8300 5900
F 0 "#PWR0145" H 8300 5750 50  0001 C CNN
F 1 "+5V" H 8315 6073 50  0000 C CNN
F 2 "" H 8300 5900 50  0001 C CNN
F 3 "" H 8300 5900 50  0001 C CNN
	1    8300 5900
	1    0    0    -1  
$EndComp
$Comp
L power:GND #PWR0146
U 1 1 5D775993
P 8300 6200
F 0 "#PWR0146" H 8300 5950 50  0001 C CNN
F 1 "GND" H 8305 6027 50  0000 C CNN
F 2 "" H 8300 6200 50  0001 C CNN
F 3 "" H 8300 6200 50  0001 C CNN
	1    8300 6200
	1    0    0    -1  
$EndComp
$Comp
L Device:C C_SCREEN2
U 1 1 5D77599D
P 8600 6050
F 0 "C_SCREEN2" H 8715 6096 50  0000 L CNN
F 1 "10nF" H 8715 6005 50  0000 L CNN
F 2 "Capacitor_THT:C_Disc_D4.3mm_W1.9mm_P5.00mm" H 8638 5900 50  0001 C CNN
F 3 "~" H 8600 6050 50  0001 C CNN
	1    8600 6050
	1    0    0    -1  
$EndComp
$Comp
L Device:C C_SCREEN1
U 1 1 5D7759A7
P 8300 6050
F 0 "C_SCREEN1" H 7850 6100 50  0000 L CNN
F 1 "10uF" H 8000 6000 50  0000 L CNN
F 2 "Capacitor_THT:CP_Radial_D5.0mm_P2.00mm" H 8338 5900 50  0001 C CNN
F 3 "~" H 8300 6050 50  0001 C CNN
	1    8300 6050
	1    0    0    -1  
$EndComp
Wire Wire Line
	8600 5900 8300 5900
Connection ~ 8300 5900
Wire Wire Line
	8600 6200 8300 6200
Connection ~ 8300 6200
$Comp
L Device:C C_CURR_ODRV1
U 1 1 5D77F899
P 8850 2600
F 0 "C_CURR_ODRV1" H 8965 2646 50  0000 L CNN
F 1 "10nF" H 8965 2555 50  0000 L CNN
F 2 "Capacitor_THT:C_Disc_D4.3mm_W1.9mm_P5.00mm" H 8888 2450 50  0001 C CNN
F 3 "~" H 8850 2600 50  0001 C CNN
	1    8850 2600
	1    0    0    -1  
$EndComp
$Comp
L Device:C C_ODRV_P1
U 1 1 5D780AE4
P 8850 2300
F 0 "C_ODRV_P1" H 8965 2346 50  0000 L CNN
F 1 "10nF" H 8965 2255 50  0000 L CNN
F 2 "Capacitor_THT:C_Disc_D4.3mm_W1.9mm_P5.00mm" H 8888 2150 50  0001 C CNN
F 3 "~" H 8850 2300 50  0001 C CNN
	1    8850 2300
	1    0    0    -1  
$EndComp
Wire Wire Line
	8850 2150 9050 2150
Wire Wire Line
	8650 2550 8650 2150
Wire Wire Line
	8650 2150 8850 2150
Connection ~ 8850 2150
Wire Wire Line
	8650 2650 8700 2650
Wire Wire Line
	8700 2650 8700 2450
Wire Wire Line
	8700 2450 8850 2450
Connection ~ 8850 2450
Wire Wire Line
	8850 2450 9050 2450
Wire Wire Line
	8650 2750 8850 2750
Wire Wire Line
	8850 2750 9000 2750
Connection ~ 8850 2750
$Comp
L Device:C C_CURR_ALL1
U 1 1 5D7B3BA8
P 8950 1000
F 0 "C_CURR_ALL1" H 9065 1046 50  0000 L CNN
F 1 "10nF" H 9065 955 50  0000 L CNN
F 2 "Capacitor_THT:C_Disc_D4.3mm_W1.9mm_P5.00mm" H 8988 850 50  0001 C CNN
F 3 "~" H 8950 1000 50  0001 C CNN
	1    8950 1000
	1    0    0    -1  
$EndComp
$Comp
L Device:C C_ALL_P1
U 1 1 5D7B433E
P 8950 700
F 0 "C_ALL_P1" H 9065 746 50  0000 L CNN
F 1 "10nF" H 9065 655 50  0000 L CNN
F 2 "Capacitor_THT:C_Disc_D4.3mm_W1.9mm_P5.00mm" H 8988 550 50  0001 C CNN
F 3 "~" H 8950 700 50  0001 C CNN
	1    8950 700 
	1    0    0    -1  
$EndComp
Wire Wire Line
	8650 1150 8950 1150
Wire Wire Line
	8650 1050 8800 1050
Wire Wire Line
	8800 1050 8800 850 
Wire Wire Line
	8800 850  8950 850 
Connection ~ 8950 850 
Wire Wire Line
	8950 850  9250 850 
Wire Wire Line
	8650 950  8700 950 
Wire Wire Line
	8700 950  8700 550 
Wire Wire Line
	8700 550  8950 550 
Connection ~ 8950 550 
Wire Wire Line
	8950 550  9250 550 
Wire Wire Line
	8950 1150 9250 1150
Connection ~ 8950 1150
$Comp
L Device:C C_OPAMPS1
U 1 1 5D7E59FE
P 2850 2300
F 0 "C_OPAMPS1" V 3102 2300 50  0000 C CNN
F 1 "10uF" V 3011 2300 50  0000 C CNN
F 2 "Capacitor_THT:CP_Radial_D5.0mm_P2.00mm" H 2888 2150 50  0001 C CNN
F 3 "~" H 2850 2300 50  0001 C CNN
	1    2850 2300
	0    -1   -1   0   
$EndComp
$Comp
L Device:C C_OPAMPS2
U 1 1 5D7E5A08
P 2850 2500
F 0 "C_OPAMPS2" H 2400 2550 50  0000 L CNN
F 1 "10nF" H 2550 2450 50  0000 L CNN
F 2 "Capacitor_THT:C_Disc_D4.3mm_W1.9mm_P5.00mm" H 2888 2350 50  0001 C CNN
F 3 "~" H 2850 2500 50  0001 C CNN
	1    2850 2500
	0    -1   -1   0   
$EndComp
Wire Wire Line
	3100 2500 3000 2500
Wire Wire Line
	2600 2500 2700 2500
Wire Wire Line
	2600 2300 2700 2300
Wire Wire Line
	2600 2300 2600 2500
Wire Wire Line
	3000 2300 3100 2300
Wire Wire Line
	3100 2300 3100 2500
Wire Wire Line
	3150 6900 3150 7100
Wire Wire Line
	3150 7300 3150 7650
Wire Wire Line
	3250 7300 3250 7650
Wire Wire Line
	3250 7650 3150 7650
Wire Wire Line
	3350 7300 3350 7650
Wire Wire Line
	3350 7650 3250 7650
Connection ~ 3250 7650
Wire Wire Line
	3450 7300 3450 7650
Wire Wire Line
	3450 7650 3350 7650
Connection ~ 3350 7650
Wire Wire Line
	3250 6800 3250 7100
Connection ~ 3250 6800
Wire Wire Line
	3350 6700 3350 7100
Connection ~ 3350 6700
Wire Wire Line
	3450 6600 3450 7100
Connection ~ 3450 6600
$Comp
L power:GND #PWR0147
U 1 1 5D8A7947
P 3150 7650
F 0 "#PWR0147" H 3150 7400 50  0001 C CNN
F 1 "GND" H 3155 7477 50  0000 C CNN
F 2 "" H 3150 7650 50  0001 C CNN
F 3 "" H 3150 7650 50  0001 C CNN
	1    3150 7650
	1    0    0    -1  
$EndComp
Connection ~ 3150 7650
Text GLabel 1700 3200 2    50   Input ~ 0
VC3
Text GLabel 1700 3300 2    50   Input ~ 0
VC2
Text GLabel 1700 3400 2    50   Input ~ 0
VC1
$Comp
L Connector_Generic:Conn_01x05 LIPO_BAL1
U 1 1 5D65722E
P 1100 3300
F 0 "LIPO_BAL1" H 1180 3342 50  0000 L CNN
F 1 "Conn_01x05" H 1180 3251 50  0000 L CNN
F 2 "Connector_JST:JST_XH_S5B-XH-A_1x05_P2.50mm_Horizontal" H 1100 3300 50  0001 C CNN
F 3 "~" H 1100 3300 50  0001 C CNN
	1    1100 3300
	-1   0    0    -1  
$EndComp
Text GLabel 1700 3500 2    50   Input ~ 0
VC0
Text GLabel 1700 3100 2    50   Input ~ 0
VC4
Wire Wire Line
	1300 3300 1450 3300
Wire Wire Line
	1300 3200 1550 3200
Wire Wire Line
	1300 3100 1650 3100
Wire Wire Line
	1300 3400 1350 3400
Wire Wire Line
	1650 3100 1700 3100
Connection ~ 1650 3100
Wire Wire Line
	1550 3200 1700 3200
Connection ~ 1550 3200
Wire Wire Line
	1450 3300 1700 3300
Connection ~ 1450 3300
Wire Wire Line
	1350 3400 1700 3400
Connection ~ 1350 3400
Wire Wire Line
	1300 3500 1700 3500
$Comp
L Device:C_Small C_OPAMP1
U 1 1 5D953747
P 1350 3750
F 0 "C_OPAMP1" V 1300 3350 50  0000 L CNN
F 1 "10nF" V 1300 3800 50  0000 L CNN
F 2 "Capacitor_THT:C_Disc_D4.3mm_W1.9mm_P5.00mm" H 1350 3750 50  0001 C CNN
F 3 "~" H 1350 3750 50  0001 C CNN
	1    1350 3750
	1    0    0    -1  
$EndComp
Wire Wire Line
	1350 3400 1350 3650
$Comp
L Device:C_Small C_OPAMP2
U 1 1 5DA04E9F
P 1450 3750
F 0 "C_OPAMP2" V 1400 3350 50  0000 L CNN
F 1 "10nF" V 1400 3800 50  0000 L CNN
F 2 "Capacitor_THT:C_Disc_D4.3mm_W1.9mm_P5.00mm" H 1450 3750 50  0001 C CNN
F 3 "~" H 1450 3750 50  0001 C CNN
	1    1450 3750
	1    0    0    -1  
$EndComp
$Comp
L Device:C_Small C_OPAMP3
U 1 1 5DA0512D
P 1550 3750
F 0 "C_OPAMP3" V 1500 3350 50  0000 L CNN
F 1 "10nF" V 1500 3800 50  0000 L CNN
F 2 "Capacitor_THT:C_Disc_D4.3mm_W1.9mm_P5.00mm" H 1550 3750 50  0001 C CNN
F 3 "~" H 1550 3750 50  0001 C CNN
	1    1550 3750
	1    0    0    -1  
$EndComp
$Comp
L Device:C_Small C_OPAMP4
U 1 1 5DA053A5
P 1650 3750
F 0 "C_OPAMP4" V 1600 3350 50  0000 L CNN
F 1 "10nF" V 1600 3800 50  0000 L CNN
F 2 "Capacitor_THT:C_Disc_D4.3mm_W1.9mm_P5.00mm" H 1650 3750 50  0001 C CNN
F 3 "~" H 1650 3750 50  0001 C CNN
	1    1650 3750
	1    0    0    -1  
$EndComp
Wire Wire Line
	1450 3300 1450 3650
Wire Wire Line
	1550 3200 1550 3650
Wire Wire Line
	1650 3100 1650 3650
Wire Wire Line
	1350 3850 1350 4150
Wire Wire Line
	1350 4150 1450 4150
Wire Wire Line
	1650 4150 1650 3850
Wire Wire Line
	1550 3850 1550 4150
Connection ~ 1550 4150
Wire Wire Line
	1550 4150 1650 4150
Wire Wire Line
	1450 4150 1450 3850
Connection ~ 1450 4150
Wire Wire Line
	1450 4150 1550 4150
$Comp
L power:GND #PWR0148
U 1 1 5DA520CC
P 1350 4150
F 0 "#PWR0148" H 1350 3900 50  0001 C CNN
F 1 "GND" H 1355 3977 50  0000 C CNN
F 2 "" H 1350 4150 50  0001 C CNN
F 3 "" H 1350 4150 50  0001 C CNN
	1    1350 4150
	1    0    0    -1  
$EndComp
Connection ~ 1350 4150
$Comp
L power:GND #PWR0149
U 1 1 5DA524E3
P 8300 5450
F 0 "#PWR0149" H 8300 5200 50  0001 C CNN
F 1 "GND" H 8305 5277 50  0000 C CNN
F 2 "" H 8300 5450 50  0001 C CNN
F 3 "" H 8300 5450 50  0001 C CNN
	1    8300 5450
	1    0    0    -1  
$EndComp
$Comp
L Device:C C_CO2_S1
U 1 1 5DA524ED
P 8600 5300
F 0 "C_CO2_S1" H 8715 5346 50  0000 L CNN
F 1 "10nF" H 8715 5255 50  0000 L CNN
F 2 "Capacitor_THT:C_Disc_D4.3mm_W1.9mm_P5.00mm" H 8638 5150 50  0001 C CNN
F 3 "~" H 8600 5300 50  0001 C CNN
	1    8600 5300
	1    0    0    -1  
$EndComp
$Comp
L Device:C C_CO2_B1
U 1 1 5DA524F7
P 8300 5300
F 0 "C_CO2_B1" H 7850 5350 50  0000 L CNN
F 1 "10uF" H 8000 5250 50  0000 L CNN
F 2 "Capacitor_THT:CP_Radial_D5.0mm_P2.00mm" H 8338 5150 50  0001 C CNN
F 3 "~" H 8300 5300 50  0001 C CNN
	1    8300 5300
	1    0    0    -1  
$EndComp
Wire Wire Line
	8600 5150 8300 5150
Wire Wire Line
	8600 5450 8300 5450
Connection ~ 8300 5450
$Comp
L power:+3V3 #PWR0150
U 1 1 5DA6030D
P 8300 5150
F 0 "#PWR0150" H 8300 5000 50  0001 C CNN
F 1 "+3V3" H 8315 5323 50  0000 C CNN
F 2 "" H 8300 5150 50  0001 C CNN
F 3 "" H 8300 5150 50  0001 C CNN
	1    8300 5150
	1    0    0    -1  
$EndComp
Connection ~ 8300 5150
$Comp
L Device:C_Small C_BAL4
U 1 1 5D871039
P 3450 7200
F 0 "C_BAL4" V 3400 6900 50  0000 L CNN
F 1 "10nF" V 3400 7250 50  0000 L CNN
F 2 "Capacitor_THT:C_Disc_D4.3mm_W1.9mm_P5.00mm" H 3450 7200 50  0001 C CNN
F 3 "~" H 3450 7200 50  0001 C CNN
	1    3450 7200
	1    0    0    -1  
$EndComp
$Comp
L Device:C_Small C_BAL3
U 1 1 5DA64BAF
P 3350 7200
F 0 "C_BAL3" V 3300 6900 50  0000 L CNN
F 1 "10nF" V 3300 7250 50  0000 L CNN
F 2 "Capacitor_THT:C_Disc_D4.3mm_W1.9mm_P5.00mm" H 3350 7200 50  0001 C CNN
F 3 "~" H 3350 7200 50  0001 C CNN
	1    3350 7200
	1    0    0    -1  
$EndComp
$Comp
L Device:C_Small C_BAL2
U 1 1 5DA64F34
P 3250 7200
F 0 "C_BAL2" V 3200 6900 50  0000 L CNN
F 1 "10nF" V 3200 7250 50  0000 L CNN
F 2 "Capacitor_THT:C_Disc_D4.3mm_W1.9mm_P5.00mm" H 3250 7200 50  0001 C CNN
F 3 "~" H 3250 7200 50  0001 C CNN
	1    3250 7200
	1    0    0    -1  
$EndComp
$Comp
L Device:C_Small C_BAL1
U 1 1 5DA651A8
P 3150 7200
F 0 "C_BAL1" V 3100 6900 50  0000 L CNN
F 1 "10nF" V 3100 7250 50  0000 L CNN
F 2 "Capacitor_THT:C_Disc_D4.3mm_W1.9mm_P5.00mm" H 3150 7200 50  0001 C CNN
F 3 "~" H 3150 7200 50  0001 C CNN
	1    3150 7200
	1    0    0    -1  
$EndComp
Wire Wire Line
	3150 3350 3150 2500
Wire Wire Line
	3150 2500 3100 2500
Connection ~ 3150 3350
Connection ~ 3100 2500
Wire Wire Line
	2600 2500 2550 2500
Wire Wire Line
	2550 2500 2550 3350
Connection ~ 2600 2500
Connection ~ 2550 3350
$Comp
L power:VCC #PWR0130
U 1 1 5DC8CF7C
P 10100 2150
F 0 "#PWR0130" H 10100 2000 50  0001 C CNN
F 1 "VCC" V 10118 2277 50  0000 L CNN
F 2 "" H 10100 2150 50  0001 C CNN
F 3 "" H 10100 2150 50  0001 C CNN
	1    10100 2150
	0    -1   -1   0   
$EndComp
$Comp
L Connector_Generic:Conn_01x02 RELAY_OVERRIDE_ODRV1
U 1 1 5DE55A65
P 6250 3400
F 0 "RELAY_OVERRIDE_ODRV1" V 6214 3212 50  0000 R CNN
F 1 "Conn_01x02" V 6123 3212 50  0000 R CNN
F 2 "Connector_Molex:Molex_Micro-Fit_3.0_43650-0200_1x02_P3.00mm_Horizontal" H 6250 3400 50  0001 C CNN
F 3 "~" H 6250 3400 50  0001 C CNN
	1    6250 3400
	-1   0    0    1   
$EndComp
$Comp
L power:GND #PWR0151
U 1 1 5DE56330
P 6450 3400
F 0 "#PWR0151" H 6450 3150 50  0001 C CNN
F 1 "GND" H 6455 3227 50  0000 C CNN
F 2 "" H 6450 3400 50  0001 C CNN
F 3 "" H 6450 3400 50  0001 C CNN
	1    6450 3400
	0    -1   -1   0   
$EndComp
$EndSCHEMATC
