G04 #@! TF.GenerationSoftware,KiCad,Pcbnew,5.1.4-e60b266~84~ubuntu18.04.1*
G04 #@! TF.CreationDate,2019-10-04T00:26:58+01:00*
G04 #@! TF.ProjectId,Robotics Arm PCB,526f626f-7469-4637-9320-41726d205043,rev?*
G04 #@! TF.SameCoordinates,Original*
G04 #@! TF.FileFunction,Copper,L1,Top*
G04 #@! TF.FilePolarity,Positive*
%FSLAX46Y46*%
G04 Gerber Fmt 4.6, Leading zero omitted, Abs format (unit mm)*
G04 Created by KiCad (PCBNEW 5.1.4-e60b266~84~ubuntu18.04.1) date 2019-10-04 00:26:58*
%MOMM*%
%LPD*%
G04 APERTURE LIST*
%ADD10C,1.600000*%
%ADD11R,1.600000X1.600000*%
%ADD12O,2.020000X1.500000*%
%ADD13C,0.100000*%
%ADD14C,1.500000*%
%ADD15O,1.500000X2.500000*%
%ADD16R,1.500000X2.500000*%
%ADD17C,1.700000*%
%ADD18C,4.000000*%
%ADD19R,3.000000X3.000000*%
%ADD20C,3.000000*%
%ADD21C,1.200000*%
%ADD22C,0.800000*%
%ADD23C,0.400000*%
%ADD24C,1.000000*%
%ADD25C,4.000000*%
%ADD26C,2.000000*%
G04 APERTURE END LIST*
D10*
X181610000Y-139700000D03*
X181610000Y-137160000D03*
X181610000Y-134620000D03*
X181610000Y-132080000D03*
X181610000Y-129540000D03*
X181610000Y-127000000D03*
X181610000Y-124460000D03*
X181610000Y-121920000D03*
X181610000Y-119380000D03*
X181610000Y-116840000D03*
X181610000Y-114300000D03*
X181610000Y-111760000D03*
X181610000Y-109220000D03*
X181610000Y-106680000D03*
X181610000Y-104140000D03*
X181610000Y-101600000D03*
D11*
X196850000Y-139700000D03*
D10*
X196850000Y-137160000D03*
X196850000Y-134620000D03*
X196850000Y-132080000D03*
X196850000Y-129540000D03*
X196850000Y-127000000D03*
X196850000Y-124460000D03*
X196850000Y-121920000D03*
X196850000Y-119380000D03*
X196850000Y-116840000D03*
X196850000Y-114300000D03*
X196850000Y-111760000D03*
X196850000Y-109220000D03*
X181610000Y-99060000D03*
X181610000Y-96520000D03*
X181610000Y-93980000D03*
X181610000Y-91440000D03*
X181610000Y-88900000D03*
X181610000Y-86360000D03*
X181610000Y-83820000D03*
X181610000Y-81280000D03*
X196850000Y-81280000D03*
X196850000Y-83820000D03*
X196850000Y-86360000D03*
X196850000Y-88900000D03*
X196850000Y-106680000D03*
X196850000Y-104140000D03*
X196850000Y-101600000D03*
X196850000Y-91440000D03*
X196850000Y-93980000D03*
X196850000Y-96520000D03*
X196850000Y-99060000D03*
D12*
X212670000Y-136700000D03*
D13*
G36*
X213454504Y-132951204D02*
G01*
X213478773Y-132954804D01*
X213502571Y-132960765D01*
X213525671Y-132969030D01*
X213547849Y-132979520D01*
X213568893Y-132992133D01*
X213588598Y-133006747D01*
X213606777Y-133023223D01*
X213623253Y-133041402D01*
X213637867Y-133061107D01*
X213650480Y-133082151D01*
X213660970Y-133104329D01*
X213669235Y-133127429D01*
X213675196Y-133151227D01*
X213678796Y-133175496D01*
X213680000Y-133200000D01*
X213680000Y-134200000D01*
X213678796Y-134224504D01*
X213675196Y-134248773D01*
X213669235Y-134272571D01*
X213660970Y-134295671D01*
X213650480Y-134317849D01*
X213637867Y-134338893D01*
X213623253Y-134358598D01*
X213606777Y-134376777D01*
X213588598Y-134393253D01*
X213568893Y-134407867D01*
X213547849Y-134420480D01*
X213525671Y-134430970D01*
X213502571Y-134439235D01*
X213478773Y-134445196D01*
X213454504Y-134448796D01*
X213430000Y-134450000D01*
X211910000Y-134450000D01*
X211885496Y-134448796D01*
X211861227Y-134445196D01*
X211837429Y-134439235D01*
X211814329Y-134430970D01*
X211792151Y-134420480D01*
X211771107Y-134407867D01*
X211751402Y-134393253D01*
X211733223Y-134376777D01*
X211716747Y-134358598D01*
X211702133Y-134338893D01*
X211689520Y-134317849D01*
X211679030Y-134295671D01*
X211670765Y-134272571D01*
X211664804Y-134248773D01*
X211661204Y-134224504D01*
X211660000Y-134200000D01*
X211660000Y-133200000D01*
X211661204Y-133175496D01*
X211664804Y-133151227D01*
X211670765Y-133127429D01*
X211679030Y-133104329D01*
X211689520Y-133082151D01*
X211702133Y-133061107D01*
X211716747Y-133041402D01*
X211733223Y-133023223D01*
X211751402Y-133006747D01*
X211771107Y-132992133D01*
X211792151Y-132979520D01*
X211814329Y-132969030D01*
X211837429Y-132960765D01*
X211861227Y-132954804D01*
X211885496Y-132951204D01*
X211910000Y-132950000D01*
X213430000Y-132950000D01*
X213454504Y-132951204D01*
X213454504Y-132951204D01*
G37*
D14*
X212670000Y-133700000D03*
D15*
X186690000Y-72390000D03*
X189230000Y-72390000D03*
D16*
X191770000Y-72390000D03*
D17*
X105410000Y-97790000D03*
X105410000Y-95250000D03*
X105410000Y-92710000D03*
X105410000Y-90170000D03*
X105410000Y-87630000D03*
X105410000Y-85090000D03*
X105410000Y-82550000D03*
D18*
X97790000Y-123190000D03*
X97790000Y-73660000D03*
D19*
X107950000Y-133350000D03*
D20*
X113030000Y-133350000D03*
D17*
X120650000Y-97790000D03*
X120650000Y-95250000D03*
X120650000Y-92710000D03*
X120650000Y-90170000D03*
X120650000Y-87630000D03*
X120650000Y-85090000D03*
X120650000Y-82550000D03*
D18*
X113030000Y-123190000D03*
X113030000Y-73660000D03*
D19*
X123190000Y-133350000D03*
D20*
X128270000Y-133350000D03*
D17*
X135890000Y-97790000D03*
X135890000Y-95250000D03*
X135890000Y-92710000D03*
X135890000Y-90170000D03*
X135890000Y-87630000D03*
X135890000Y-85090000D03*
X135890000Y-82550000D03*
D18*
X128270000Y-123190000D03*
X128270000Y-73660000D03*
D19*
X138430000Y-133350000D03*
D20*
X143510000Y-133350000D03*
D17*
X151130000Y-97790000D03*
X151130000Y-95250000D03*
X151130000Y-92710000D03*
X151130000Y-90170000D03*
X151130000Y-87630000D03*
X151130000Y-85090000D03*
X151130000Y-82550000D03*
D18*
X143510000Y-123190000D03*
X143510000Y-73660000D03*
D19*
X153670000Y-133350000D03*
D20*
X158750000Y-133350000D03*
D17*
X166370000Y-97790000D03*
X166370000Y-95250000D03*
X166370000Y-92710000D03*
X166370000Y-90170000D03*
X166370000Y-87630000D03*
X166370000Y-85090000D03*
X166370000Y-82550000D03*
D18*
X158750000Y-123190000D03*
X158750000Y-73660000D03*
D19*
X168910000Y-133350000D03*
D20*
X173990000Y-133350000D03*
D21*
X214630000Y-81758000D03*
X217170000Y-81758000D03*
X217170000Y-90962000D03*
X214630000Y-90962000D03*
D12*
X220292540Y-119263680D03*
D13*
G36*
X221077044Y-115514884D02*
G01*
X221101313Y-115518484D01*
X221125111Y-115524445D01*
X221148211Y-115532710D01*
X221170389Y-115543200D01*
X221191433Y-115555813D01*
X221211138Y-115570427D01*
X221229317Y-115586903D01*
X221245793Y-115605082D01*
X221260407Y-115624787D01*
X221273020Y-115645831D01*
X221283510Y-115668009D01*
X221291775Y-115691109D01*
X221297736Y-115714907D01*
X221301336Y-115739176D01*
X221302540Y-115763680D01*
X221302540Y-116763680D01*
X221301336Y-116788184D01*
X221297736Y-116812453D01*
X221291775Y-116836251D01*
X221283510Y-116859351D01*
X221273020Y-116881529D01*
X221260407Y-116902573D01*
X221245793Y-116922278D01*
X221229317Y-116940457D01*
X221211138Y-116956933D01*
X221191433Y-116971547D01*
X221170389Y-116984160D01*
X221148211Y-116994650D01*
X221125111Y-117002915D01*
X221101313Y-117008876D01*
X221077044Y-117012476D01*
X221052540Y-117013680D01*
X219532540Y-117013680D01*
X219508036Y-117012476D01*
X219483767Y-117008876D01*
X219459969Y-117002915D01*
X219436869Y-116994650D01*
X219414691Y-116984160D01*
X219393647Y-116971547D01*
X219373942Y-116956933D01*
X219355763Y-116940457D01*
X219339287Y-116922278D01*
X219324673Y-116902573D01*
X219312060Y-116881529D01*
X219301570Y-116859351D01*
X219293305Y-116836251D01*
X219287344Y-116812453D01*
X219283744Y-116788184D01*
X219282540Y-116763680D01*
X219282540Y-115763680D01*
X219283744Y-115739176D01*
X219287344Y-115714907D01*
X219293305Y-115691109D01*
X219301570Y-115668009D01*
X219312060Y-115645831D01*
X219324673Y-115624787D01*
X219339287Y-115605082D01*
X219355763Y-115586903D01*
X219373942Y-115570427D01*
X219393647Y-115555813D01*
X219414691Y-115543200D01*
X219436869Y-115532710D01*
X219459969Y-115524445D01*
X219483767Y-115518484D01*
X219508036Y-115514884D01*
X219532540Y-115513680D01*
X221052540Y-115513680D01*
X221077044Y-115514884D01*
X221077044Y-115514884D01*
G37*
D14*
X220292540Y-116263680D03*
D12*
X205050000Y-136700000D03*
D13*
G36*
X205834504Y-132951204D02*
G01*
X205858773Y-132954804D01*
X205882571Y-132960765D01*
X205905671Y-132969030D01*
X205927849Y-132979520D01*
X205948893Y-132992133D01*
X205968598Y-133006747D01*
X205986777Y-133023223D01*
X206003253Y-133041402D01*
X206017867Y-133061107D01*
X206030480Y-133082151D01*
X206040970Y-133104329D01*
X206049235Y-133127429D01*
X206055196Y-133151227D01*
X206058796Y-133175496D01*
X206060000Y-133200000D01*
X206060000Y-134200000D01*
X206058796Y-134224504D01*
X206055196Y-134248773D01*
X206049235Y-134272571D01*
X206040970Y-134295671D01*
X206030480Y-134317849D01*
X206017867Y-134338893D01*
X206003253Y-134358598D01*
X205986777Y-134376777D01*
X205968598Y-134393253D01*
X205948893Y-134407867D01*
X205927849Y-134420480D01*
X205905671Y-134430970D01*
X205882571Y-134439235D01*
X205858773Y-134445196D01*
X205834504Y-134448796D01*
X205810000Y-134450000D01*
X204290000Y-134450000D01*
X204265496Y-134448796D01*
X204241227Y-134445196D01*
X204217429Y-134439235D01*
X204194329Y-134430970D01*
X204172151Y-134420480D01*
X204151107Y-134407867D01*
X204131402Y-134393253D01*
X204113223Y-134376777D01*
X204096747Y-134358598D01*
X204082133Y-134338893D01*
X204069520Y-134317849D01*
X204059030Y-134295671D01*
X204050765Y-134272571D01*
X204044804Y-134248773D01*
X204041204Y-134224504D01*
X204040000Y-134200000D01*
X204040000Y-133200000D01*
X204041204Y-133175496D01*
X204044804Y-133151227D01*
X204050765Y-133127429D01*
X204059030Y-133104329D01*
X204069520Y-133082151D01*
X204082133Y-133061107D01*
X204096747Y-133041402D01*
X204113223Y-133023223D01*
X204131402Y-133006747D01*
X204151107Y-132992133D01*
X204172151Y-132979520D01*
X204194329Y-132969030D01*
X204217429Y-132960765D01*
X204241227Y-132954804D01*
X204265496Y-132951204D01*
X204290000Y-132950000D01*
X205810000Y-132950000D01*
X205834504Y-132951204D01*
X205834504Y-132951204D01*
G37*
D14*
X205050000Y-133700000D03*
D12*
X220290000Y-107490000D03*
X220290000Y-104490000D03*
X220290000Y-101490000D03*
D13*
G36*
X221074504Y-97741204D02*
G01*
X221098773Y-97744804D01*
X221122571Y-97750765D01*
X221145671Y-97759030D01*
X221167849Y-97769520D01*
X221188893Y-97782133D01*
X221208598Y-97796747D01*
X221226777Y-97813223D01*
X221243253Y-97831402D01*
X221257867Y-97851107D01*
X221270480Y-97872151D01*
X221280970Y-97894329D01*
X221289235Y-97917429D01*
X221295196Y-97941227D01*
X221298796Y-97965496D01*
X221300000Y-97990000D01*
X221300000Y-98990000D01*
X221298796Y-99014504D01*
X221295196Y-99038773D01*
X221289235Y-99062571D01*
X221280970Y-99085671D01*
X221270480Y-99107849D01*
X221257867Y-99128893D01*
X221243253Y-99148598D01*
X221226777Y-99166777D01*
X221208598Y-99183253D01*
X221188893Y-99197867D01*
X221167849Y-99210480D01*
X221145671Y-99220970D01*
X221122571Y-99229235D01*
X221098773Y-99235196D01*
X221074504Y-99238796D01*
X221050000Y-99240000D01*
X219530000Y-99240000D01*
X219505496Y-99238796D01*
X219481227Y-99235196D01*
X219457429Y-99229235D01*
X219434329Y-99220970D01*
X219412151Y-99210480D01*
X219391107Y-99197867D01*
X219371402Y-99183253D01*
X219353223Y-99166777D01*
X219336747Y-99148598D01*
X219322133Y-99128893D01*
X219309520Y-99107849D01*
X219299030Y-99085671D01*
X219290765Y-99062571D01*
X219284804Y-99038773D01*
X219281204Y-99014504D01*
X219280000Y-98990000D01*
X219280000Y-97990000D01*
X219281204Y-97965496D01*
X219284804Y-97941227D01*
X219290765Y-97917429D01*
X219299030Y-97894329D01*
X219309520Y-97872151D01*
X219322133Y-97851107D01*
X219336747Y-97831402D01*
X219353223Y-97813223D01*
X219371402Y-97796747D01*
X219391107Y-97782133D01*
X219412151Y-97769520D01*
X219434329Y-97759030D01*
X219457429Y-97750765D01*
X219481227Y-97744804D01*
X219505496Y-97741204D01*
X219530000Y-97740000D01*
X221050000Y-97740000D01*
X221074504Y-97741204D01*
X221074504Y-97741204D01*
G37*
D14*
X220290000Y-98490000D03*
D12*
X205050000Y-125270000D03*
X205050000Y-122270000D03*
X205050000Y-119270000D03*
D13*
G36*
X205834504Y-115521204D02*
G01*
X205858773Y-115524804D01*
X205882571Y-115530765D01*
X205905671Y-115539030D01*
X205927849Y-115549520D01*
X205948893Y-115562133D01*
X205968598Y-115576747D01*
X205986777Y-115593223D01*
X206003253Y-115611402D01*
X206017867Y-115631107D01*
X206030480Y-115652151D01*
X206040970Y-115674329D01*
X206049235Y-115697429D01*
X206055196Y-115721227D01*
X206058796Y-115745496D01*
X206060000Y-115770000D01*
X206060000Y-116770000D01*
X206058796Y-116794504D01*
X206055196Y-116818773D01*
X206049235Y-116842571D01*
X206040970Y-116865671D01*
X206030480Y-116887849D01*
X206017867Y-116908893D01*
X206003253Y-116928598D01*
X205986777Y-116946777D01*
X205968598Y-116963253D01*
X205948893Y-116977867D01*
X205927849Y-116990480D01*
X205905671Y-117000970D01*
X205882571Y-117009235D01*
X205858773Y-117015196D01*
X205834504Y-117018796D01*
X205810000Y-117020000D01*
X204290000Y-117020000D01*
X204265496Y-117018796D01*
X204241227Y-117015196D01*
X204217429Y-117009235D01*
X204194329Y-117000970D01*
X204172151Y-116990480D01*
X204151107Y-116977867D01*
X204131402Y-116963253D01*
X204113223Y-116946777D01*
X204096747Y-116928598D01*
X204082133Y-116908893D01*
X204069520Y-116887849D01*
X204059030Y-116865671D01*
X204050765Y-116842571D01*
X204044804Y-116818773D01*
X204041204Y-116794504D01*
X204040000Y-116770000D01*
X204040000Y-115770000D01*
X204041204Y-115745496D01*
X204044804Y-115721227D01*
X204050765Y-115697429D01*
X204059030Y-115674329D01*
X204069520Y-115652151D01*
X204082133Y-115631107D01*
X204096747Y-115611402D01*
X204113223Y-115593223D01*
X204131402Y-115576747D01*
X204151107Y-115562133D01*
X204172151Y-115549520D01*
X204194329Y-115539030D01*
X204217429Y-115530765D01*
X204241227Y-115524804D01*
X204265496Y-115521204D01*
X204290000Y-115520000D01*
X205810000Y-115520000D01*
X205834504Y-115521204D01*
X205834504Y-115521204D01*
G37*
D14*
X205050000Y-116270000D03*
D12*
X212670000Y-125270000D03*
X212670000Y-122270000D03*
X212670000Y-119270000D03*
D13*
G36*
X213454504Y-115521204D02*
G01*
X213478773Y-115524804D01*
X213502571Y-115530765D01*
X213525671Y-115539030D01*
X213547849Y-115549520D01*
X213568893Y-115562133D01*
X213588598Y-115576747D01*
X213606777Y-115593223D01*
X213623253Y-115611402D01*
X213637867Y-115631107D01*
X213650480Y-115652151D01*
X213660970Y-115674329D01*
X213669235Y-115697429D01*
X213675196Y-115721227D01*
X213678796Y-115745496D01*
X213680000Y-115770000D01*
X213680000Y-116770000D01*
X213678796Y-116794504D01*
X213675196Y-116818773D01*
X213669235Y-116842571D01*
X213660970Y-116865671D01*
X213650480Y-116887849D01*
X213637867Y-116908893D01*
X213623253Y-116928598D01*
X213606777Y-116946777D01*
X213588598Y-116963253D01*
X213568893Y-116977867D01*
X213547849Y-116990480D01*
X213525671Y-117000970D01*
X213502571Y-117009235D01*
X213478773Y-117015196D01*
X213454504Y-117018796D01*
X213430000Y-117020000D01*
X211910000Y-117020000D01*
X211885496Y-117018796D01*
X211861227Y-117015196D01*
X211837429Y-117009235D01*
X211814329Y-117000970D01*
X211792151Y-116990480D01*
X211771107Y-116977867D01*
X211751402Y-116963253D01*
X211733223Y-116946777D01*
X211716747Y-116928598D01*
X211702133Y-116908893D01*
X211689520Y-116887849D01*
X211679030Y-116865671D01*
X211670765Y-116842571D01*
X211664804Y-116818773D01*
X211661204Y-116794504D01*
X211660000Y-116770000D01*
X211660000Y-115770000D01*
X211661204Y-115745496D01*
X211664804Y-115721227D01*
X211670765Y-115697429D01*
X211679030Y-115674329D01*
X211689520Y-115652151D01*
X211702133Y-115631107D01*
X211716747Y-115611402D01*
X211733223Y-115593223D01*
X211751402Y-115576747D01*
X211771107Y-115562133D01*
X211792151Y-115549520D01*
X211814329Y-115539030D01*
X211837429Y-115530765D01*
X211861227Y-115524804D01*
X211885496Y-115521204D01*
X211910000Y-115520000D01*
X213430000Y-115520000D01*
X213454504Y-115521204D01*
X213454504Y-115521204D01*
G37*
D14*
X212670000Y-116270000D03*
D12*
X212670000Y-107490000D03*
X212670000Y-104490000D03*
X212670000Y-101490000D03*
D13*
G36*
X213454504Y-97741204D02*
G01*
X213478773Y-97744804D01*
X213502571Y-97750765D01*
X213525671Y-97759030D01*
X213547849Y-97769520D01*
X213568893Y-97782133D01*
X213588598Y-97796747D01*
X213606777Y-97813223D01*
X213623253Y-97831402D01*
X213637867Y-97851107D01*
X213650480Y-97872151D01*
X213660970Y-97894329D01*
X213669235Y-97917429D01*
X213675196Y-97941227D01*
X213678796Y-97965496D01*
X213680000Y-97990000D01*
X213680000Y-98990000D01*
X213678796Y-99014504D01*
X213675196Y-99038773D01*
X213669235Y-99062571D01*
X213660970Y-99085671D01*
X213650480Y-99107849D01*
X213637867Y-99128893D01*
X213623253Y-99148598D01*
X213606777Y-99166777D01*
X213588598Y-99183253D01*
X213568893Y-99197867D01*
X213547849Y-99210480D01*
X213525671Y-99220970D01*
X213502571Y-99229235D01*
X213478773Y-99235196D01*
X213454504Y-99238796D01*
X213430000Y-99240000D01*
X211910000Y-99240000D01*
X211885496Y-99238796D01*
X211861227Y-99235196D01*
X211837429Y-99229235D01*
X211814329Y-99220970D01*
X211792151Y-99210480D01*
X211771107Y-99197867D01*
X211751402Y-99183253D01*
X211733223Y-99166777D01*
X211716747Y-99148598D01*
X211702133Y-99128893D01*
X211689520Y-99107849D01*
X211679030Y-99085671D01*
X211670765Y-99062571D01*
X211664804Y-99038773D01*
X211661204Y-99014504D01*
X211660000Y-98990000D01*
X211660000Y-97990000D01*
X211661204Y-97965496D01*
X211664804Y-97941227D01*
X211670765Y-97917429D01*
X211679030Y-97894329D01*
X211689520Y-97872151D01*
X211702133Y-97851107D01*
X211716747Y-97831402D01*
X211733223Y-97813223D01*
X211751402Y-97796747D01*
X211771107Y-97782133D01*
X211792151Y-97769520D01*
X211814329Y-97759030D01*
X211837429Y-97750765D01*
X211861227Y-97744804D01*
X211885496Y-97741204D01*
X211910000Y-97740000D01*
X213430000Y-97740000D01*
X213454504Y-97741204D01*
X213454504Y-97741204D01*
G37*
D14*
X212670000Y-98490000D03*
D12*
X205050000Y-107490000D03*
X205050000Y-104490000D03*
X205050000Y-101490000D03*
D13*
G36*
X205834504Y-97741204D02*
G01*
X205858773Y-97744804D01*
X205882571Y-97750765D01*
X205905671Y-97759030D01*
X205927849Y-97769520D01*
X205948893Y-97782133D01*
X205968598Y-97796747D01*
X205986777Y-97813223D01*
X206003253Y-97831402D01*
X206017867Y-97851107D01*
X206030480Y-97872151D01*
X206040970Y-97894329D01*
X206049235Y-97917429D01*
X206055196Y-97941227D01*
X206058796Y-97965496D01*
X206060000Y-97990000D01*
X206060000Y-98990000D01*
X206058796Y-99014504D01*
X206055196Y-99038773D01*
X206049235Y-99062571D01*
X206040970Y-99085671D01*
X206030480Y-99107849D01*
X206017867Y-99128893D01*
X206003253Y-99148598D01*
X205986777Y-99166777D01*
X205968598Y-99183253D01*
X205948893Y-99197867D01*
X205927849Y-99210480D01*
X205905671Y-99220970D01*
X205882571Y-99229235D01*
X205858773Y-99235196D01*
X205834504Y-99238796D01*
X205810000Y-99240000D01*
X204290000Y-99240000D01*
X204265496Y-99238796D01*
X204241227Y-99235196D01*
X204217429Y-99229235D01*
X204194329Y-99220970D01*
X204172151Y-99210480D01*
X204151107Y-99197867D01*
X204131402Y-99183253D01*
X204113223Y-99166777D01*
X204096747Y-99148598D01*
X204082133Y-99128893D01*
X204069520Y-99107849D01*
X204059030Y-99085671D01*
X204050765Y-99062571D01*
X204044804Y-99038773D01*
X204041204Y-99014504D01*
X204040000Y-98990000D01*
X204040000Y-97990000D01*
X204041204Y-97965496D01*
X204044804Y-97941227D01*
X204050765Y-97917429D01*
X204059030Y-97894329D01*
X204069520Y-97872151D01*
X204082133Y-97851107D01*
X204096747Y-97831402D01*
X204113223Y-97813223D01*
X204131402Y-97796747D01*
X204151107Y-97782133D01*
X204172151Y-97769520D01*
X204194329Y-97759030D01*
X204217429Y-97750765D01*
X204241227Y-97744804D01*
X204265496Y-97741204D01*
X204290000Y-97740000D01*
X205810000Y-97740000D01*
X205834504Y-97741204D01*
X205834504Y-97741204D01*
G37*
D14*
X205050000Y-98490000D03*
X207470000Y-82900000D03*
X207470000Y-85900000D03*
X207470000Y-88900000D03*
X204470000Y-82900000D03*
X204470000Y-85900000D03*
D13*
G36*
X204994504Y-88151204D02*
G01*
X205018773Y-88154804D01*
X205042571Y-88160765D01*
X205065671Y-88169030D01*
X205087849Y-88179520D01*
X205108893Y-88192133D01*
X205128598Y-88206747D01*
X205146777Y-88223223D01*
X205163253Y-88241402D01*
X205177867Y-88261107D01*
X205190480Y-88282151D01*
X205200970Y-88304329D01*
X205209235Y-88327429D01*
X205215196Y-88351227D01*
X205218796Y-88375496D01*
X205220000Y-88400000D01*
X205220000Y-89400000D01*
X205218796Y-89424504D01*
X205215196Y-89448773D01*
X205209235Y-89472571D01*
X205200970Y-89495671D01*
X205190480Y-89517849D01*
X205177867Y-89538893D01*
X205163253Y-89558598D01*
X205146777Y-89576777D01*
X205128598Y-89593253D01*
X205108893Y-89607867D01*
X205087849Y-89620480D01*
X205065671Y-89630970D01*
X205042571Y-89639235D01*
X205018773Y-89645196D01*
X204994504Y-89648796D01*
X204970000Y-89650000D01*
X203970000Y-89650000D01*
X203945496Y-89648796D01*
X203921227Y-89645196D01*
X203897429Y-89639235D01*
X203874329Y-89630970D01*
X203852151Y-89620480D01*
X203831107Y-89607867D01*
X203811402Y-89593253D01*
X203793223Y-89576777D01*
X203776747Y-89558598D01*
X203762133Y-89538893D01*
X203749520Y-89517849D01*
X203739030Y-89495671D01*
X203730765Y-89472571D01*
X203724804Y-89448773D01*
X203721204Y-89424504D01*
X203720000Y-89400000D01*
X203720000Y-88400000D01*
X203721204Y-88375496D01*
X203724804Y-88351227D01*
X203730765Y-88327429D01*
X203739030Y-88304329D01*
X203749520Y-88282151D01*
X203762133Y-88261107D01*
X203776747Y-88241402D01*
X203793223Y-88223223D01*
X203811402Y-88206747D01*
X203831107Y-88192133D01*
X203852151Y-88179520D01*
X203874329Y-88169030D01*
X203897429Y-88160765D01*
X203921227Y-88154804D01*
X203945496Y-88151204D01*
X203970000Y-88150000D01*
X204970000Y-88150000D01*
X204994504Y-88151204D01*
X204994504Y-88151204D01*
G37*
D14*
X204470000Y-88900000D03*
D10*
X179070000Y-75470000D03*
D11*
X179070000Y-77470000D03*
D10*
X199390000Y-74930000D03*
D11*
X199390000Y-76930000D03*
D22*
X175190000Y-82550000D03*
X216175000Y-99150000D03*
X212025000Y-96100000D03*
X166370000Y-120650000D03*
X175260000Y-109220000D03*
X175260000Y-90170000D03*
X179832000Y-128968500D03*
X171323000Y-120523000D03*
X151130000Y-119380000D03*
X161290000Y-104140000D03*
X161290000Y-95250000D03*
X160020000Y-110490000D03*
X160020000Y-90170000D03*
X179710814Y-126232186D03*
X173863000Y-120396000D03*
X135890000Y-118110000D03*
X146050000Y-105410000D03*
X146050000Y-95250000D03*
X144780000Y-111760000D03*
X144780000Y-90170000D03*
X179774314Y-123755686D03*
X175895000Y-120015000D03*
X120650000Y-116840000D03*
X130810000Y-106680000D03*
X130810000Y-95250000D03*
X129540000Y-113030000D03*
X129540000Y-90170000D03*
X179894700Y-121286506D03*
X175895000Y-117411500D03*
X105410000Y-115570000D03*
X115570000Y-107950000D03*
X115570000Y-95250000D03*
X114300000Y-114300000D03*
X114300000Y-90170000D03*
X179857936Y-117766564D03*
X176555936Y-114464564D03*
D23*
X206160000Y-98490000D02*
X212670000Y-98490000D01*
X205050000Y-98490000D02*
X206160000Y-98490000D01*
X151130000Y-85090000D02*
X135890000Y-85090000D01*
X135890000Y-85090000D02*
X120650000Y-85090000D01*
X120650000Y-85090000D02*
X105410000Y-85090000D01*
X151130000Y-85090000D02*
X166370000Y-85090000D01*
X199050000Y-139700000D02*
X205050000Y-133700000D01*
X196850000Y-139700000D02*
X199050000Y-139700000D01*
X189230000Y-71890000D02*
X189230000Y-72390000D01*
X188079990Y-70739990D02*
X189230000Y-71890000D01*
X183800010Y-70739990D02*
X188079990Y-70739990D01*
X179070000Y-75470000D02*
X183800010Y-70739990D01*
X191770000Y-72890000D02*
X191770000Y-72390000D01*
X195810000Y-76930000D02*
X191770000Y-72890000D01*
X199390000Y-76930000D02*
X195810000Y-76930000D01*
D24*
X220292540Y-121013680D02*
X220292540Y-119263680D01*
X220292540Y-127013262D02*
X220292540Y-121013680D01*
X215270801Y-132035001D02*
X220292540Y-127013262D01*
X205310000Y-136700000D02*
X209974999Y-132035001D01*
X209974999Y-132035001D02*
X215270801Y-132035001D01*
X205050000Y-136700000D02*
X205310000Y-136700000D01*
X201190000Y-76930000D02*
X199390000Y-76930000D01*
X207216002Y-76930000D02*
X201190000Y-76930000D01*
X218470001Y-88183999D02*
X207216002Y-76930000D01*
X218470001Y-117701141D02*
X218470001Y-88183999D01*
X220032540Y-119263680D02*
X218470001Y-117701141D01*
X220292540Y-119263680D02*
X220032540Y-119263680D01*
D23*
X105410000Y-82550000D02*
X120650000Y-82550000D01*
X120650000Y-82550000D02*
X135890000Y-82550000D01*
X135890000Y-82550000D02*
X151130000Y-82550000D01*
X151130000Y-82550000D02*
X166370000Y-82550000D01*
X186690000Y-72890000D02*
X186690000Y-72390000D01*
X182110000Y-77470000D02*
X186690000Y-72890000D01*
X179070000Y-77470000D02*
X182110000Y-77470000D01*
X179070000Y-78670000D02*
X179070000Y-77470000D01*
X175190000Y-82550000D02*
X179070000Y-78670000D01*
X166370000Y-82550000D02*
X175190000Y-82550000D01*
D24*
X206720001Y-86649999D02*
X207470000Y-85900000D01*
X205920010Y-87449990D02*
X206720001Y-86649999D01*
X198300010Y-87449990D02*
X205920010Y-87449990D01*
X196850000Y-88900000D02*
X198300010Y-87449990D01*
X199850000Y-81280000D02*
X204470000Y-85900000D01*
X196850000Y-81280000D02*
X199850000Y-81280000D01*
D23*
X210784901Y-104490000D02*
X212670000Y-104490000D01*
X205449901Y-109825000D02*
X210784901Y-104490000D01*
X199625000Y-107925000D02*
X201525000Y-109825000D01*
X201525000Y-109825000D02*
X205449901Y-109825000D01*
X181610000Y-101600000D02*
X187935000Y-107925000D01*
X187935000Y-107925000D02*
X199625000Y-107925000D01*
X212930000Y-101490000D02*
X212670000Y-101490000D01*
X215665001Y-104225001D02*
X212930000Y-101490000D01*
X215665001Y-124161358D02*
X215665001Y-104225001D01*
X208091358Y-131735001D02*
X215665001Y-124161358D01*
X204835743Y-131735001D02*
X208091358Y-131735001D01*
X203290743Y-133280001D02*
X204835743Y-131735001D01*
X182810001Y-133280001D02*
X203290743Y-133280001D01*
X181610000Y-132080000D02*
X182810001Y-133280001D01*
X189230000Y-121920000D02*
X181610000Y-121920000D01*
X190430001Y-123120001D02*
X189230000Y-121920000D01*
X198465098Y-123120001D02*
X190430001Y-123120001D01*
X212930000Y-122270000D02*
X214080010Y-121119990D01*
X213894980Y-117519980D02*
X204065119Y-117519980D01*
X204065119Y-117519980D02*
X198465098Y-123120001D01*
X212670000Y-122270000D02*
X212930000Y-122270000D01*
X214080010Y-121119990D02*
X214080010Y-117705010D01*
X214080010Y-117705010D02*
X213894980Y-117519980D01*
X189230000Y-124460000D02*
X181610000Y-124460000D01*
X197726338Y-125660001D02*
X190430001Y-125660001D01*
X211260000Y-119270000D02*
X210109990Y-118119990D01*
X190430001Y-125660001D02*
X189230000Y-124460000D01*
X212670000Y-119270000D02*
X211260000Y-119270000D01*
X210109990Y-118119990D02*
X204313651Y-118119990D01*
X204313651Y-118119990D02*
X203639990Y-118793651D01*
X203639990Y-118793651D02*
X203639990Y-119746349D01*
X203639990Y-119746349D02*
X197726338Y-125660001D01*
X190480000Y-128250000D02*
X189230000Y-127000000D01*
X198810000Y-128250000D02*
X190480000Y-128250000D01*
X205050000Y-122270000D02*
X204790000Y-122270000D01*
X189230000Y-127000000D02*
X181610000Y-127000000D01*
X204790000Y-122270000D02*
X198810000Y-128250000D01*
X205310000Y-119270000D02*
X205050000Y-119270000D01*
X206460010Y-120420010D02*
X205310000Y-119270000D01*
X206460010Y-122746349D02*
X206460010Y-120420010D01*
X181610000Y-129540000D02*
X189230000Y-129540000D01*
X190430001Y-130740001D02*
X197693640Y-130740001D01*
X205786349Y-123420010D02*
X206460010Y-122746349D01*
X197693640Y-130740001D02*
X205013631Y-123420010D01*
X189230000Y-129540000D02*
X190430001Y-130740001D01*
X205013631Y-123420010D02*
X205786349Y-123420010D01*
X216169999Y-99144999D02*
X216175000Y-99150000D01*
X216169999Y-89897997D02*
X216169999Y-99144999D01*
X181610000Y-83820000D02*
X185350001Y-80079999D01*
X206352001Y-80079999D02*
X216169999Y-89897997D01*
X185350001Y-80079999D02*
X206352001Y-80079999D01*
X211277998Y-96100000D02*
X212025000Y-96100000D01*
X205277999Y-90100001D02*
X211277998Y-96100000D01*
X181610000Y-86360000D02*
X185350001Y-90100001D01*
X185350001Y-90100001D02*
X205277999Y-90100001D01*
D24*
X217769999Y-82357999D02*
X217170000Y-81758000D01*
X223587541Y-88175541D02*
X217769999Y-82357999D01*
X223587541Y-114078679D02*
X223587541Y-88175541D01*
X221402540Y-116263680D02*
X223587541Y-114078679D01*
X220292540Y-116263680D02*
X221402540Y-116263680D01*
X217170000Y-81758000D02*
X214630000Y-81758000D01*
D23*
X214030001Y-91561999D02*
X214630000Y-90962000D01*
X214133199Y-96525001D02*
X213594999Y-95986801D01*
X214133199Y-99206057D02*
X214133199Y-96525001D01*
X213699246Y-99640010D02*
X214133199Y-99206057D01*
X212633631Y-99640010D02*
X213699246Y-99640010D01*
X211259990Y-101013651D02*
X212633631Y-99640010D01*
X213594999Y-91997001D02*
X214030001Y-91561999D01*
X211259990Y-103166369D02*
X211259990Y-101013651D01*
X205786349Y-108640010D02*
X211259990Y-103166369D01*
X204313651Y-108640010D02*
X205786349Y-108640010D01*
X213594999Y-95986801D02*
X213594999Y-91997001D01*
X202353641Y-106680000D02*
X204313651Y-108640010D01*
X196850000Y-106680000D02*
X202353641Y-106680000D01*
X170180000Y-120650000D02*
X166370000Y-120650000D01*
X180340000Y-130810000D02*
X170180000Y-120650000D01*
X196850000Y-132080000D02*
X191770000Y-132080000D01*
X180340000Y-130810000D02*
X189230000Y-130810000D01*
X189230000Y-130810000D02*
X190500000Y-132080000D01*
X190500000Y-132080000D02*
X191770000Y-132080000D01*
X175260000Y-95250000D02*
X166370000Y-95250000D01*
X181610000Y-88900000D02*
X175260000Y-95250000D01*
X181610000Y-109220000D02*
X175260000Y-109220000D01*
X175260000Y-90170000D02*
X166370000Y-90170000D01*
X179832000Y-128968500D02*
X171386500Y-120523000D01*
X171386500Y-120523000D02*
X171323000Y-120523000D01*
X151130000Y-119380000D02*
X171450000Y-119380000D01*
X171450000Y-119380000D02*
X180340000Y-128270000D01*
X180340000Y-128270000D02*
X189230000Y-128270000D01*
X192405000Y-129540000D02*
X196850000Y-129540000D01*
X189230000Y-128270000D02*
X190500000Y-129540000D01*
X190500000Y-129540000D02*
X192405000Y-129540000D01*
X181610000Y-91440000D02*
X168910000Y-104140000D01*
X168910000Y-104140000D02*
X165100000Y-104140000D01*
X165100000Y-104140000D02*
X161290000Y-104140000D01*
X161290000Y-95250000D02*
X151130000Y-95250000D01*
X160020000Y-90170000D02*
X151130000Y-90170000D01*
X179925000Y-111775000D02*
X179940000Y-111760000D01*
X160020000Y-110490000D02*
X178640000Y-110490000D01*
X179940000Y-111760000D02*
X181610000Y-111760000D01*
X178640000Y-110490000D02*
X179925000Y-111775000D01*
X179710814Y-126232186D02*
X173874628Y-120396000D01*
X173874628Y-120396000D02*
X173863000Y-120396000D01*
X189230000Y-125730000D02*
X180340000Y-125730000D01*
X196850000Y-127000000D02*
X190500000Y-127000000D01*
X172720000Y-118110000D02*
X135890000Y-118110000D01*
X180340000Y-125730000D02*
X172720000Y-118110000D01*
X190500000Y-127000000D02*
X189230000Y-125730000D01*
X181610000Y-93980000D02*
X170180000Y-105410000D01*
X170180000Y-105410000D02*
X165100000Y-105410000D01*
X165100000Y-105410000D02*
X146050000Y-105410000D01*
X146050000Y-95250000D02*
X135890000Y-95250000D01*
X144780000Y-90170000D02*
X135890000Y-90170000D01*
X180340000Y-114300000D02*
X181610000Y-114300000D01*
X144780000Y-111760000D02*
X177800000Y-111760000D01*
X177800000Y-111760000D02*
X180340000Y-114300000D01*
X179774314Y-123755686D02*
X176033628Y-120015000D01*
X176033628Y-120015000D02*
X175895000Y-120015000D01*
X173990000Y-116840000D02*
X120650000Y-116840000D01*
X180340000Y-123190000D02*
X173990000Y-116840000D01*
X196850000Y-124460000D02*
X190500000Y-124460000D01*
X189230000Y-123190000D02*
X180340000Y-123190000D01*
X190500000Y-124460000D02*
X189230000Y-123190000D01*
X181610000Y-96520000D02*
X171450000Y-106680000D01*
X171450000Y-106680000D02*
X165100000Y-106680000D01*
X165100000Y-106680000D02*
X130810000Y-106680000D01*
X130810000Y-95250000D02*
X120650000Y-95250000D01*
X129540000Y-90170000D02*
X120650000Y-90170000D01*
X180340000Y-116840000D02*
X181610000Y-116840000D01*
X129540000Y-113030000D02*
X176530000Y-113030000D01*
X176530000Y-113030000D02*
X180340000Y-116840000D01*
X179894700Y-121286506D02*
X176019694Y-117411500D01*
X176019694Y-117411500D02*
X175895000Y-117411500D01*
X175260000Y-115570000D02*
X105410000Y-115570000D01*
X189299999Y-120580001D02*
X180270001Y-120580001D01*
X196850000Y-121920000D02*
X190639998Y-121920000D01*
X180270001Y-120580001D02*
X175260000Y-115570000D01*
X190639998Y-121920000D02*
X189299999Y-120580001D01*
X181610000Y-99060000D02*
X172720000Y-107950000D01*
X172720000Y-107950000D02*
X165100000Y-107950000D01*
X165100000Y-107950000D02*
X115570000Y-107950000D01*
X115570000Y-95250000D02*
X105410000Y-95250000D01*
X175260000Y-114300000D02*
X114300000Y-114300000D01*
X114300000Y-90170000D02*
X105410000Y-90170000D01*
X175260000Y-114300000D02*
X180340000Y-119380000D01*
X180340000Y-119380000D02*
X181610000Y-119380000D01*
X179857936Y-117766564D02*
X176555936Y-114464564D01*
D25*
X113030000Y-133350000D02*
X113030000Y-137160000D01*
X113030000Y-137160000D02*
X128270000Y-137160000D01*
X128270000Y-137160000D02*
X128270000Y-133350000D01*
X143510000Y-137160000D02*
X143510000Y-133350000D01*
X128270000Y-137160000D02*
X143510000Y-137160000D01*
X143510000Y-137160000D02*
X158750000Y-137160000D01*
X158750000Y-137160000D02*
X158750000Y-133350000D01*
X158750000Y-137160000D02*
X173990000Y-137160000D01*
X173990000Y-137160000D02*
X173990000Y-133350000D01*
X173990000Y-137160000D02*
X176530000Y-137160000D01*
X176530000Y-137160000D02*
X178609999Y-139239999D01*
D26*
X178609999Y-139660001D02*
X178609999Y-139239999D01*
X180649999Y-141700001D02*
X178609999Y-139660001D01*
X210419999Y-141700001D02*
X180649999Y-141700001D01*
X212670000Y-136700000D02*
X212670000Y-139450000D01*
X212670000Y-139450000D02*
X210419999Y-141700001D01*
M02*
