G04 #@! TF.GenerationSoftware,KiCad,Pcbnew,5.1.4-e60b266~84~ubuntu18.04.1*
G04 #@! TF.CreationDate,2019-10-04T00:26:58+01:00*
G04 #@! TF.ProjectId,Robotics Arm PCB,526f626f-7469-4637-9320-41726d205043,rev?*
G04 #@! TF.SameCoordinates,Original*
G04 #@! TF.FileFunction,Profile,NP*
%FSLAX46Y46*%
G04 Gerber Fmt 4.6, Leading zero omitted, Abs format (unit mm)*
G04 Created by KiCad (PCBNEW 5.1.4-e60b266~84~ubuntu18.04.1) date 2019-10-04 00:26:58*
%MOMM*%
%LPD*%
G04 APERTURE LIST*
%ADD10C,0.050000*%
G04 APERTURE END LIST*
D10*
X226060000Y-138430000D02*
G75*
G02X220980000Y-143510000I-5080000J0D01*
G01*
X226060000Y-72390000D02*
X226060000Y-138430000D01*
X220980000Y-67310000D02*
G75*
G02X226060000Y-72390000I0J-5080000D01*
G01*
X97790000Y-67310000D02*
X220980000Y-67310000D01*
X92710000Y-72390000D02*
G75*
G02X97790000Y-67310000I5080000J0D01*
G01*
X92710000Y-138430000D02*
X92710000Y-72390000D01*
X97790000Y-143510000D02*
G75*
G02X92710000Y-138430000I0J5080000D01*
G01*
X220980000Y-143510000D02*
X97790000Y-143510000D01*
M02*
